EESchema Schematic File Version 4
LIBS:grid60-cache
EELAYER 29 0
EELAYER END
$Descr A4 11693 8268
encoding utf-8
Sheet 3 3
Title "Grid60: Keyboard matrix"
Date "2019-06-03"
Rev "A"
Comp "George Bryant"
Comment1 ""
Comment2 ""
Comment3 ""
Comment4 ""
$EndDescr
$Comp
L Switch:SW_SPST SW1
U 1 1 5CF5C45F
P 2500 2050
F 0 "SW1" H 2500 2285 50  0000 C CNN
F 1 "SW_SPST" H 2500 2194 50  0000 C CNN
F 2 "Keyboard:CHERRY_PCB_125H" H 2500 2050 50  0001 C CNN
F 3 "~" H 2500 2050 50  0001 C CNN
	1    2500 2050
	1    0    0    1   
$EndComp
$Comp
L Device:D D1
U 1 1 5CF5D4F5
P 2450 2400
F 0 "D1" H 2450 2184 50  0000 C CNN
F 1 "D" H 2450 2275 50  0000 C CNN
F 2 "Diodes_SMD:D_SOD-123" H 2450 2400 50  0001 C CNN
F 3 "~" H 2450 2400 50  0001 C CNN
	1    2450 2400
	1    0    0    -1  
$EndComp
Wire Wire Line
	2300 2050 2300 2400
Wire Wire Line
	2700 2050 2700 1950
Wire Wire Line
	2600 2400 2800 2400
Wire Wire Line
	9200 2400 9400 2400
Wire Wire Line
	9300 2050 9300 1950
Wire Wire Line
	8900 2050 8900 2400
$Comp
L Device:D D56
U 1 1 5CF6A8A3
P 9050 2400
F 0 "D56" H 9050 2184 50  0000 C CNN
F 1 "D" H 9050 2275 50  0000 C CNN
F 2 "Diodes_SMD:D_SOD-123" H 9050 2400 50  0001 C CNN
F 3 "~" H 9050 2400 50  0001 C CNN
	1    9050 2400
	1    0    0    -1  
$EndComp
$Comp
L Switch:SW_SPST SW56
U 1 1 5CF6A89D
P 9100 2050
F 0 "SW56" H 9100 2285 50  0000 C CNN
F 1 "SW_SPST" H 9100 2194 50  0000 C CNN
F 2 "Keyboard:CHERRY_PCB_125H" H 9100 2050 50  0001 C CNN
F 3 "~" H 9100 2050 50  0001 C CNN
	1    9100 2050
	1    0    0    1   
$EndComp
Wire Wire Line
	8600 2400 8800 2400
Wire Wire Line
	8700 2050 8700 1950
Wire Wire Line
	8300 2050 8300 2400
$Comp
L Device:D D51
U 1 1 5CF6A894
P 8450 2400
F 0 "D51" H 8450 2184 50  0000 C CNN
F 1 "D" H 8450 2275 50  0000 C CNN
F 2 "Diodes_SMD:D_SOD-123" H 8450 2400 50  0001 C CNN
F 3 "~" H 8450 2400 50  0001 C CNN
	1    8450 2400
	1    0    0    -1  
$EndComp
$Comp
L Switch:SW_SPST SW51
U 1 1 5CF6A88E
P 8500 2050
F 0 "SW51" H 8500 2285 50  0000 C CNN
F 1 "SW_SPST" H 8500 2194 50  0000 C CNN
F 2 "Keyboard:CHERRY_PCB_100H" H 8500 2050 50  0001 C CNN
F 3 "~" H 8500 2050 50  0001 C CNN
	1    8500 2050
	1    0    0    1   
$EndComp
Wire Wire Line
	8000 2400 8200 2400
Wire Wire Line
	8100 2050 8100 1950
Wire Wire Line
	7700 2050 7700 2400
$Comp
L Device:D D46
U 1 1 5CF6A885
P 7850 2400
F 0 "D46" H 7850 2184 50  0000 C CNN
F 1 "D" H 7850 2275 50  0000 C CNN
F 2 "Diodes_SMD:D_SOD-123" H 7850 2400 50  0001 C CNN
F 3 "~" H 7850 2400 50  0001 C CNN
	1    7850 2400
	1    0    0    -1  
$EndComp
$Comp
L Switch:SW_SPST SW46
U 1 1 5CF6A87F
P 7900 2050
F 0 "SW46" H 7900 2285 50  0000 C CNN
F 1 "SW_SPST" H 7900 2194 50  0000 C CNN
F 2 "Keyboard:CHERRY_PCB_100H" H 7900 2050 50  0001 C CNN
F 3 "~" H 7900 2050 50  0001 C CNN
	1    7900 2050
	1    0    0    1   
$EndComp
Wire Wire Line
	7400 2400 7600 2400
Wire Wire Line
	7500 2050 7500 1950
Wire Wire Line
	7100 2050 7100 2400
$Comp
L Device:D D41
U 1 1 5CF6A876
P 7250 2400
F 0 "D41" H 7250 2184 50  0000 C CNN
F 1 "D" H 7250 2275 50  0000 C CNN
F 2 "Diodes_SMD:D_SOD-123" H 7250 2400 50  0001 C CNN
F 3 "~" H 7250 2400 50  0001 C CNN
	1    7250 2400
	1    0    0    -1  
$EndComp
$Comp
L Switch:SW_SPST SW41
U 1 1 5CF6A870
P 7300 2050
F 0 "SW41" H 7300 2285 50  0000 C CNN
F 1 "SW_SPST" H 7300 2194 50  0000 C CNN
F 2 "Keyboard:CHERRY_PCB_100H" H 7300 2050 50  0001 C CNN
F 3 "~" H 7300 2050 50  0001 C CNN
	1    7300 2050
	1    0    0    1   
$EndComp
Wire Wire Line
	6800 2400 7000 2400
Wire Wire Line
	6900 2050 6900 1950
Wire Wire Line
	6500 2050 6500 2400
$Comp
L Device:D D36
U 1 1 5CF68371
P 6650 2400
F 0 "D36" H 6650 2184 50  0000 C CNN
F 1 "D" H 6650 2275 50  0000 C CNN
F 2 "Diodes_SMD:D_SOD-123" H 6650 2400 50  0001 C CNN
F 3 "~" H 6650 2400 50  0001 C CNN
	1    6650 2400
	1    0    0    -1  
$EndComp
$Comp
L Switch:SW_SPST SW36
U 1 1 5CF6836B
P 6700 2050
F 0 "SW36" H 6700 2285 50  0000 C CNN
F 1 "SW_SPST" H 6700 2194 50  0000 C CNN
F 2 "Keyboard:CHERRY_PCB_100H" H 6700 2050 50  0001 C CNN
F 3 "~" H 6700 2050 50  0001 C CNN
	1    6700 2050
	1    0    0    1   
$EndComp
Wire Wire Line
	6200 2400 6400 2400
Wire Wire Line
	6300 2050 6300 1950
Wire Wire Line
	5900 2050 5900 2400
$Comp
L Device:D D31
U 1 1 5CF68362
P 6050 2400
F 0 "D31" H 6050 2184 50  0000 C CNN
F 1 "D" H 6050 2275 50  0000 C CNN
F 2 "Diodes_SMD:D_SOD-123" H 6050 2400 50  0001 C CNN
F 3 "~" H 6050 2400 50  0001 C CNN
	1    6050 2400
	1    0    0    -1  
$EndComp
$Comp
L Switch:SW_SPST SW31
U 1 1 5CF6835C
P 6100 2050
F 0 "SW31" H 6100 2285 50  0000 C CNN
F 1 "SW_SPST" H 6100 2194 50  0000 C CNN
F 2 "Keyboard:CHERRY_PCB_100H" H 6100 2050 50  0001 C CNN
F 3 "~" H 6100 2050 50  0001 C CNN
	1    6100 2050
	1    0    0    1   
$EndComp
Wire Wire Line
	5600 2400 5800 2400
Wire Wire Line
	5700 2050 5700 1950
Wire Wire Line
	5300 2050 5300 2400
$Comp
L Device:D D26
U 1 1 5CF68353
P 5450 2400
F 0 "D26" H 5450 2184 50  0000 C CNN
F 1 "D" H 5450 2275 50  0000 C CNN
F 2 "Diodes_SMD:D_SOD-123" H 5450 2400 50  0001 C CNN
F 3 "~" H 5450 2400 50  0001 C CNN
	1    5450 2400
	1    0    0    -1  
$EndComp
$Comp
L Switch:SW_SPST SW26
U 1 1 5CF6834D
P 5500 2050
F 0 "SW26" H 5500 2285 50  0000 C CNN
F 1 "SW_SPST" H 5500 2194 50  0000 C CNN
F 2 "Keyboard:CHERRY_PCB_100H" H 5500 2050 50  0001 C CNN
F 3 "~" H 5500 2050 50  0001 C CNN
	1    5500 2050
	1    0    0    1   
$EndComp
Wire Wire Line
	5000 2400 5200 2400
Wire Wire Line
	5100 2050 5100 1950
Wire Wire Line
	4700 2050 4700 2400
$Comp
L Device:D D21
U 1 1 5CF68344
P 4850 2400
F 0 "D21" H 4850 2184 50  0000 C CNN
F 1 "D" H 4850 2275 50  0000 C CNN
F 2 "Diodes_SMD:D_SOD-123" H 4850 2400 50  0001 C CNN
F 3 "~" H 4850 2400 50  0001 C CNN
	1    4850 2400
	1    0    0    -1  
$EndComp
$Comp
L Switch:SW_SPST SW21
U 1 1 5CF6833E
P 4900 2050
F 0 "SW21" H 4900 2285 50  0000 C CNN
F 1 "SW_SPST" H 4900 2194 50  0000 C CNN
F 2 "Keyboard:CHERRY_PCB_100H" H 4900 2050 50  0001 C CNN
F 3 "~" H 4900 2050 50  0001 C CNN
	1    4900 2050
	1    0    0    1   
$EndComp
Wire Wire Line
	4400 2400 4600 2400
Wire Wire Line
	4500 2050 4500 1950
Wire Wire Line
	4100 2050 4100 2400
$Comp
L Device:D D16
U 1 1 5CF64C83
P 4250 2400
F 0 "D16" H 4250 2184 50  0000 C CNN
F 1 "D" H 4250 2275 50  0000 C CNN
F 2 "Diodes_SMD:D_SOD-123" H 4250 2400 50  0001 C CNN
F 3 "~" H 4250 2400 50  0001 C CNN
	1    4250 2400
	1    0    0    -1  
$EndComp
$Comp
L Switch:SW_SPST SW16
U 1 1 5CF64C7D
P 4300 2050
F 0 "SW16" H 4300 2285 50  0000 C CNN
F 1 "SW_SPST" H 4300 2194 50  0000 C CNN
F 2 "Keyboard:CHERRY_PCB_100H" H 4300 2050 50  0001 C CNN
F 3 "~" H 4300 2050 50  0001 C CNN
	1    4300 2050
	1    0    0    1   
$EndComp
Wire Wire Line
	3800 2400 4000 2400
Wire Wire Line
	3900 2050 3900 1950
Wire Wire Line
	3500 2050 3500 2400
$Comp
L Device:D D11
U 1 1 5CF645F1
P 3650 2400
F 0 "D11" H 3650 2184 50  0000 C CNN
F 1 "D" H 3650 2275 50  0000 C CNN
F 2 "Diodes_SMD:D_SOD-123" H 3650 2400 50  0001 C CNN
F 3 "~" H 3650 2400 50  0001 C CNN
	1    3650 2400
	1    0    0    -1  
$EndComp
$Comp
L Switch:SW_SPST SW11
U 1 1 5CF645EB
P 3700 2050
F 0 "SW11" H 3700 2285 50  0000 C CNN
F 1 "SW_SPST" H 3700 2194 50  0000 C CNN
F 2 "Keyboard:CHERRY_PCB_100H" H 3700 2050 50  0001 C CNN
F 3 "~" H 3700 2050 50  0001 C CNN
	1    3700 2050
	1    0    0    1   
$EndComp
Wire Wire Line
	3200 2400 3400 2400
Wire Wire Line
	3300 2050 3300 1950
Wire Wire Line
	2900 2050 2900 2400
$Comp
L Device:D D6
U 1 1 5CF642F7
P 3050 2400
F 0 "D6" H 3050 2184 50  0000 C CNN
F 1 "D" H 3050 2275 50  0000 C CNN
F 2 "Diodes_SMD:D_SOD-123" H 3050 2400 50  0001 C CNN
F 3 "~" H 3050 2400 50  0001 C CNN
	1    3050 2400
	1    0    0    -1  
$EndComp
$Comp
L Switch:SW_SPST SW6
U 1 1 5CF642F1
P 3100 2050
F 0 "SW6" H 3100 2285 50  0000 C CNN
F 1 "SW_SPST" H 3100 2194 50  0000 C CNN
F 2 "Keyboard:CHERRY_PCB_100H" H 3100 2050 50  0001 C CNN
F 3 "~" H 3100 2050 50  0001 C CNN
	1    3100 2050
	1    0    0    1   
$EndComp
$Comp
L Switch:SW_SPST SW2
U 1 1 5CF87A39
P 2500 2850
F 0 "SW2" H 2500 3085 50  0000 C CNN
F 1 "SW_SPST" H 2500 2994 50  0000 C CNN
F 2 "Keyboard:CHERRY_PCB_125H" H 2500 2850 50  0001 C CNN
F 3 "~" H 2500 2850 50  0001 C CNN
	1    2500 2850
	1    0    0    1   
$EndComp
$Comp
L Device:D D2
U 1 1 5CF87A3F
P 2450 3200
F 0 "D2" H 2450 2984 50  0000 C CNN
F 1 "D" H 2450 3075 50  0000 C CNN
F 2 "Diodes_SMD:D_SOD-123" H 2450 3200 50  0001 C CNN
F 3 "~" H 2450 3200 50  0001 C CNN
	1    2450 3200
	1    0    0    -1  
$EndComp
Wire Wire Line
	2300 2850 2300 3200
Wire Wire Line
	2700 2850 2700 2750
Wire Wire Line
	2600 3200 2800 3200
Wire Wire Line
	9200 3200 9400 3200
Wire Wire Line
	9300 2850 9300 2750
Wire Wire Line
	8900 2850 8900 3200
$Comp
L Device:D D57
U 1 1 5CF87A4B
P 9050 3200
F 0 "D57" H 9050 2984 50  0000 C CNN
F 1 "D" H 9050 3075 50  0000 C CNN
F 2 "Diodes_SMD:D_SOD-123" H 9050 3200 50  0001 C CNN
F 3 "~" H 9050 3200 50  0001 C CNN
	1    9050 3200
	1    0    0    -1  
$EndComp
$Comp
L Switch:SW_SPST SW57
U 1 1 5CF87A51
P 9100 2850
F 0 "SW57" H 9100 3085 50  0000 C CNN
F 1 "SW_SPST" H 9100 2994 50  0000 C CNN
F 2 "Keyboard:CHERRY_PCB_125H" H 9100 2850 50  0001 C CNN
F 3 "~" H 9100 2850 50  0001 C CNN
	1    9100 2850
	1    0    0    1   
$EndComp
Wire Wire Line
	8600 3200 8800 3200
Wire Wire Line
	8700 2850 8700 2750
Wire Wire Line
	8300 2850 8300 3200
$Comp
L Device:D D52
U 1 1 5CF87A5A
P 8450 3200
F 0 "D52" H 8450 2984 50  0000 C CNN
F 1 "D" H 8450 3075 50  0000 C CNN
F 2 "Diodes_SMD:D_SOD-123" H 8450 3200 50  0001 C CNN
F 3 "~" H 8450 3200 50  0001 C CNN
	1    8450 3200
	1    0    0    -1  
$EndComp
$Comp
L Switch:SW_SPST SW52
U 1 1 5CF87A60
P 8500 2850
F 0 "SW52" H 8500 3085 50  0000 C CNN
F 1 "SW_SPST" H 8500 2994 50  0000 C CNN
F 2 "Keyboard:CHERRY_PCB_100H" H 8500 2850 50  0001 C CNN
F 3 "~" H 8500 2850 50  0001 C CNN
	1    8500 2850
	1    0    0    1   
$EndComp
Wire Wire Line
	8000 3200 8200 3200
Wire Wire Line
	8100 2850 8100 2750
Wire Wire Line
	7700 2850 7700 3200
$Comp
L Device:D D47
U 1 1 5CF87A69
P 7850 3200
F 0 "D47" H 7850 2984 50  0000 C CNN
F 1 "D" H 7850 3075 50  0000 C CNN
F 2 "Diodes_SMD:D_SOD-123" H 7850 3200 50  0001 C CNN
F 3 "~" H 7850 3200 50  0001 C CNN
	1    7850 3200
	1    0    0    -1  
$EndComp
$Comp
L Switch:SW_SPST SW47
U 1 1 5CF87A6F
P 7900 2850
F 0 "SW47" H 7900 3085 50  0000 C CNN
F 1 "SW_SPST" H 7900 2994 50  0000 C CNN
F 2 "Keyboard:CHERRY_PCB_100H" H 7900 2850 50  0001 C CNN
F 3 "~" H 7900 2850 50  0001 C CNN
	1    7900 2850
	1    0    0    1   
$EndComp
Wire Wire Line
	7400 3200 7600 3200
Wire Wire Line
	7500 2850 7500 2750
Wire Wire Line
	7100 2850 7100 3200
$Comp
L Device:D D42
U 1 1 5CF87A78
P 7250 3200
F 0 "D42" H 7250 2984 50  0000 C CNN
F 1 "D" H 7250 3075 50  0000 C CNN
F 2 "Diodes_SMD:D_SOD-123" H 7250 3200 50  0001 C CNN
F 3 "~" H 7250 3200 50  0001 C CNN
	1    7250 3200
	1    0    0    -1  
$EndComp
$Comp
L Switch:SW_SPST SW42
U 1 1 5CF87A7E
P 7300 2850
F 0 "SW42" H 7300 3085 50  0000 C CNN
F 1 "SW_SPST" H 7300 2994 50  0000 C CNN
F 2 "Keyboard:CHERRY_PCB_100H" H 7300 2850 50  0001 C CNN
F 3 "~" H 7300 2850 50  0001 C CNN
	1    7300 2850
	1    0    0    1   
$EndComp
Wire Wire Line
	6800 3200 7000 3200
Wire Wire Line
	6900 2850 6900 2750
Wire Wire Line
	6500 2850 6500 3200
$Comp
L Device:D D37
U 1 1 5CF87A87
P 6650 3200
F 0 "D37" H 6650 2984 50  0000 C CNN
F 1 "D" H 6650 3075 50  0000 C CNN
F 2 "Diodes_SMD:D_SOD-123" H 6650 3200 50  0001 C CNN
F 3 "~" H 6650 3200 50  0001 C CNN
	1    6650 3200
	1    0    0    -1  
$EndComp
$Comp
L Switch:SW_SPST SW37
U 1 1 5CF87A8D
P 6700 2850
F 0 "SW37" H 6700 3085 50  0000 C CNN
F 1 "SW_SPST" H 6700 2994 50  0000 C CNN
F 2 "Keyboard:CHERRY_PCB_100H" H 6700 2850 50  0001 C CNN
F 3 "~" H 6700 2850 50  0001 C CNN
	1    6700 2850
	1    0    0    1   
$EndComp
Wire Wire Line
	6200 3200 6400 3200
Wire Wire Line
	6300 2850 6300 2750
Wire Wire Line
	5900 2850 5900 3200
$Comp
L Device:D D32
U 1 1 5CF87A96
P 6050 3200
F 0 "D32" H 6050 2984 50  0000 C CNN
F 1 "D" H 6050 3075 50  0000 C CNN
F 2 "Diodes_SMD:D_SOD-123" H 6050 3200 50  0001 C CNN
F 3 "~" H 6050 3200 50  0001 C CNN
	1    6050 3200
	1    0    0    -1  
$EndComp
$Comp
L Switch:SW_SPST SW32
U 1 1 5CF87A9C
P 6100 2850
F 0 "SW32" H 6100 3085 50  0000 C CNN
F 1 "SW_SPST" H 6100 2994 50  0000 C CNN
F 2 "Keyboard:CHERRY_PCB_100H" H 6100 2850 50  0001 C CNN
F 3 "~" H 6100 2850 50  0001 C CNN
	1    6100 2850
	1    0    0    1   
$EndComp
Wire Wire Line
	5600 3200 5800 3200
Wire Wire Line
	5700 2850 5700 2750
Wire Wire Line
	5300 2850 5300 3200
$Comp
L Device:D D27
U 1 1 5CF87AA5
P 5450 3200
F 0 "D27" H 5450 2984 50  0000 C CNN
F 1 "D" H 5450 3075 50  0000 C CNN
F 2 "Diodes_SMD:D_SOD-123" H 5450 3200 50  0001 C CNN
F 3 "~" H 5450 3200 50  0001 C CNN
	1    5450 3200
	1    0    0    -1  
$EndComp
$Comp
L Switch:SW_SPST SW27
U 1 1 5CF87AAB
P 5500 2850
F 0 "SW27" H 5500 3085 50  0000 C CNN
F 1 "SW_SPST" H 5500 2994 50  0000 C CNN
F 2 "Keyboard:CHERRY_PCB_100H" H 5500 2850 50  0001 C CNN
F 3 "~" H 5500 2850 50  0001 C CNN
	1    5500 2850
	1    0    0    1   
$EndComp
Wire Wire Line
	5000 3200 5200 3200
Wire Wire Line
	5100 2850 5100 2750
Wire Wire Line
	4700 2850 4700 3200
$Comp
L Device:D D22
U 1 1 5CF87AB4
P 4850 3200
F 0 "D22" H 4850 2984 50  0000 C CNN
F 1 "D" H 4850 3075 50  0000 C CNN
F 2 "Diodes_SMD:D_SOD-123" H 4850 3200 50  0001 C CNN
F 3 "~" H 4850 3200 50  0001 C CNN
	1    4850 3200
	1    0    0    -1  
$EndComp
$Comp
L Switch:SW_SPST SW22
U 1 1 5CF87ABA
P 4900 2850
F 0 "SW22" H 4900 3085 50  0000 C CNN
F 1 "SW_SPST" H 4900 2994 50  0000 C CNN
F 2 "Keyboard:CHERRY_PCB_100H" H 4900 2850 50  0001 C CNN
F 3 "~" H 4900 2850 50  0001 C CNN
	1    4900 2850
	1    0    0    1   
$EndComp
Wire Wire Line
	4400 3200 4600 3200
Wire Wire Line
	4500 2850 4500 2750
Wire Wire Line
	4100 2850 4100 3200
$Comp
L Device:D D17
U 1 1 5CF87AC3
P 4250 3200
F 0 "D17" H 4250 2984 50  0000 C CNN
F 1 "D" H 4250 3075 50  0000 C CNN
F 2 "Diodes_SMD:D_SOD-123" H 4250 3200 50  0001 C CNN
F 3 "~" H 4250 3200 50  0001 C CNN
	1    4250 3200
	1    0    0    -1  
$EndComp
$Comp
L Switch:SW_SPST SW17
U 1 1 5CF87AC9
P 4300 2850
F 0 "SW17" H 4300 3085 50  0000 C CNN
F 1 "SW_SPST" H 4300 2994 50  0000 C CNN
F 2 "Keyboard:CHERRY_PCB_100H" H 4300 2850 50  0001 C CNN
F 3 "~" H 4300 2850 50  0001 C CNN
	1    4300 2850
	1    0    0    1   
$EndComp
Wire Wire Line
	3800 3200 4000 3200
Wire Wire Line
	3900 2850 3900 2750
Wire Wire Line
	3500 2850 3500 3200
$Comp
L Device:D D12
U 1 1 5CF87AD2
P 3650 3200
F 0 "D12" H 3650 2984 50  0000 C CNN
F 1 "D" H 3650 3075 50  0000 C CNN
F 2 "Diodes_SMD:D_SOD-123" H 3650 3200 50  0001 C CNN
F 3 "~" H 3650 3200 50  0001 C CNN
	1    3650 3200
	1    0    0    -1  
$EndComp
$Comp
L Switch:SW_SPST SW12
U 1 1 5CF87AD8
P 3700 2850
F 0 "SW12" H 3700 3085 50  0000 C CNN
F 1 "SW_SPST" H 3700 2994 50  0000 C CNN
F 2 "Keyboard:CHERRY_PCB_100H" H 3700 2850 50  0001 C CNN
F 3 "~" H 3700 2850 50  0001 C CNN
	1    3700 2850
	1    0    0    1   
$EndComp
Wire Wire Line
	3200 3200 3400 3200
Wire Wire Line
	3300 2850 3300 2750
Wire Wire Line
	2900 2850 2900 3200
$Comp
L Device:D D7
U 1 1 5CF87AE1
P 3050 3200
F 0 "D7" H 3050 2984 50  0000 C CNN
F 1 "D" H 3050 3075 50  0000 C CNN
F 2 "Diodes_SMD:D_SOD-123" H 3050 3200 50  0001 C CNN
F 3 "~" H 3050 3200 50  0001 C CNN
	1    3050 3200
	1    0    0    -1  
$EndComp
$Comp
L Switch:SW_SPST SW7
U 1 1 5CF87AE7
P 3100 2850
F 0 "SW7" H 3100 3085 50  0000 C CNN
F 1 "SW_SPST" H 3100 2994 50  0000 C CNN
F 2 "Keyboard:CHERRY_PCB_100H" H 3100 2850 50  0001 C CNN
F 3 "~" H 3100 2850 50  0001 C CNN
	1    3100 2850
	1    0    0    1   
$EndComp
$Comp
L Switch:SW_SPST SW3
U 1 1 5CF98DB1
P 2500 3650
F 0 "SW3" H 2500 3885 50  0000 C CNN
F 1 "SW_SPST" H 2500 3794 50  0000 C CNN
F 2 "Keyboard:CHERRY_PCB_125H" H 2500 3650 50  0001 C CNN
F 3 "~" H 2500 3650 50  0001 C CNN
	1    2500 3650
	1    0    0    1   
$EndComp
$Comp
L Device:D D3
U 1 1 5CF98DB7
P 2450 4000
F 0 "D3" H 2450 3784 50  0000 C CNN
F 1 "D" H 2450 3875 50  0000 C CNN
F 2 "Diodes_SMD:D_SOD-123" H 2450 4000 50  0001 C CNN
F 3 "~" H 2450 4000 50  0001 C CNN
	1    2450 4000
	1    0    0    -1  
$EndComp
Wire Wire Line
	2300 3650 2300 4000
Wire Wire Line
	2700 3650 2700 3550
Wire Wire Line
	2600 4000 2800 4000
Wire Wire Line
	9200 4000 9400 4000
Wire Wire Line
	9300 3650 9300 3550
Wire Wire Line
	8900 3650 8900 4000
$Comp
L Device:D D58
U 1 1 5CF98DC3
P 9050 4000
F 0 "D58" H 9050 3784 50  0000 C CNN
F 1 "D" H 9050 3875 50  0000 C CNN
F 2 "Diodes_SMD:D_SOD-123" H 9050 4000 50  0001 C CNN
F 3 "~" H 9050 4000 50  0001 C CNN
	1    9050 4000
	1    0    0    -1  
$EndComp
$Comp
L Switch:SW_SPST SW58
U 1 1 5CF98DC9
P 9100 3650
F 0 "SW58" H 9100 3885 50  0000 C CNN
F 1 "SW_SPST" H 9100 3794 50  0000 C CNN
F 2 "Keyboard:CHERRY_PCB_125H" H 9100 3650 50  0001 C CNN
F 3 "~" H 9100 3650 50  0001 C CNN
	1    9100 3650
	1    0    0    1   
$EndComp
Wire Wire Line
	8600 4000 8800 4000
Wire Wire Line
	8700 3650 8700 3550
Wire Wire Line
	8300 3650 8300 4000
$Comp
L Device:D D53
U 1 1 5CF98DD2
P 8450 4000
F 0 "D53" H 8450 3784 50  0000 C CNN
F 1 "D" H 8450 3875 50  0000 C CNN
F 2 "Diodes_SMD:D_SOD-123" H 8450 4000 50  0001 C CNN
F 3 "~" H 8450 4000 50  0001 C CNN
	1    8450 4000
	1    0    0    -1  
$EndComp
$Comp
L Switch:SW_SPST SW53
U 1 1 5CF98DD8
P 8500 3650
F 0 "SW53" H 8500 3885 50  0000 C CNN
F 1 "SW_SPST" H 8500 3794 50  0000 C CNN
F 2 "Keyboard:CHERRY_PCB_100H" H 8500 3650 50  0001 C CNN
F 3 "~" H 8500 3650 50  0001 C CNN
	1    8500 3650
	1    0    0    1   
$EndComp
Wire Wire Line
	8000 4000 8200 4000
Wire Wire Line
	8100 3650 8100 3550
Wire Wire Line
	7700 3650 7700 4000
$Comp
L Device:D D48
U 1 1 5CF98DE1
P 7850 4000
F 0 "D48" H 7850 3784 50  0000 C CNN
F 1 "D" H 7850 3875 50  0000 C CNN
F 2 "Diodes_SMD:D_SOD-123" H 7850 4000 50  0001 C CNN
F 3 "~" H 7850 4000 50  0001 C CNN
	1    7850 4000
	1    0    0    -1  
$EndComp
$Comp
L Switch:SW_SPST SW48
U 1 1 5CF98DE7
P 7900 3650
F 0 "SW48" H 7900 3885 50  0000 C CNN
F 1 "SW_SPST" H 7900 3794 50  0000 C CNN
F 2 "Keyboard:CHERRY_PCB_100H" H 7900 3650 50  0001 C CNN
F 3 "~" H 7900 3650 50  0001 C CNN
	1    7900 3650
	1    0    0    1   
$EndComp
Wire Wire Line
	7400 4000 7600 4000
Wire Wire Line
	7500 3650 7500 3550
Wire Wire Line
	7100 3650 7100 4000
$Comp
L Device:D D43
U 1 1 5CF98DF0
P 7250 4000
F 0 "D43" H 7250 3784 50  0000 C CNN
F 1 "D" H 7250 3875 50  0000 C CNN
F 2 "Diodes_SMD:D_SOD-123" H 7250 4000 50  0001 C CNN
F 3 "~" H 7250 4000 50  0001 C CNN
	1    7250 4000
	1    0    0    -1  
$EndComp
$Comp
L Switch:SW_SPST SW43
U 1 1 5CF98DF6
P 7300 3650
F 0 "SW43" H 7300 3885 50  0000 C CNN
F 1 "SW_SPST" H 7300 3794 50  0000 C CNN
F 2 "Keyboard:CHERRY_PCB_100H" H 7300 3650 50  0001 C CNN
F 3 "~" H 7300 3650 50  0001 C CNN
	1    7300 3650
	1    0    0    1   
$EndComp
Wire Wire Line
	6800 4000 7000 4000
Wire Wire Line
	6900 3650 6900 3550
Wire Wire Line
	6500 3650 6500 4000
$Comp
L Device:D D38
U 1 1 5CF98DFF
P 6650 4000
F 0 "D38" H 6650 3784 50  0000 C CNN
F 1 "D" H 6650 3875 50  0000 C CNN
F 2 "Diodes_SMD:D_SOD-123" H 6650 4000 50  0001 C CNN
F 3 "~" H 6650 4000 50  0001 C CNN
	1    6650 4000
	1    0    0    -1  
$EndComp
$Comp
L Switch:SW_SPST SW38
U 1 1 5CF98E05
P 6700 3650
F 0 "SW38" H 6700 3885 50  0000 C CNN
F 1 "SW_SPST" H 6700 3794 50  0000 C CNN
F 2 "Keyboard:CHERRY_PCB_100H" H 6700 3650 50  0001 C CNN
F 3 "~" H 6700 3650 50  0001 C CNN
	1    6700 3650
	1    0    0    1   
$EndComp
Wire Wire Line
	6200 4000 6400 4000
Wire Wire Line
	6300 3650 6300 3550
Wire Wire Line
	5900 3650 5900 4000
$Comp
L Device:D D33
U 1 1 5CF98E0E
P 6050 4000
F 0 "D33" H 6050 3784 50  0000 C CNN
F 1 "D" H 6050 3875 50  0000 C CNN
F 2 "Diodes_SMD:D_SOD-123" H 6050 4000 50  0001 C CNN
F 3 "~" H 6050 4000 50  0001 C CNN
	1    6050 4000
	1    0    0    -1  
$EndComp
$Comp
L Switch:SW_SPST SW33
U 1 1 5CF98E14
P 6100 3650
F 0 "SW33" H 6100 3885 50  0000 C CNN
F 1 "SW_SPST" H 6100 3794 50  0000 C CNN
F 2 "Keyboard:CHERRY_PCB_100H" H 6100 3650 50  0001 C CNN
F 3 "~" H 6100 3650 50  0001 C CNN
	1    6100 3650
	1    0    0    1   
$EndComp
Wire Wire Line
	5600 4000 5800 4000
Wire Wire Line
	5700 3650 5700 3550
Wire Wire Line
	5300 3650 5300 4000
$Comp
L Device:D D28
U 1 1 5CF98E1D
P 5450 4000
F 0 "D28" H 5450 3784 50  0000 C CNN
F 1 "D" H 5450 3875 50  0000 C CNN
F 2 "Diodes_SMD:D_SOD-123" H 5450 4000 50  0001 C CNN
F 3 "~" H 5450 4000 50  0001 C CNN
	1    5450 4000
	1    0    0    -1  
$EndComp
$Comp
L Switch:SW_SPST SW28
U 1 1 5CF98E23
P 5500 3650
F 0 "SW28" H 5500 3885 50  0000 C CNN
F 1 "SW_SPST" H 5500 3794 50  0000 C CNN
F 2 "Keyboard:CHERRY_PCB_100H" H 5500 3650 50  0001 C CNN
F 3 "~" H 5500 3650 50  0001 C CNN
	1    5500 3650
	1    0    0    1   
$EndComp
Wire Wire Line
	5000 4000 5200 4000
Wire Wire Line
	5100 3650 5100 3550
Wire Wire Line
	4700 3650 4700 4000
$Comp
L Device:D D23
U 1 1 5CF98E2C
P 4850 4000
F 0 "D23" H 4850 3784 50  0000 C CNN
F 1 "D" H 4850 3875 50  0000 C CNN
F 2 "Diodes_SMD:D_SOD-123" H 4850 4000 50  0001 C CNN
F 3 "~" H 4850 4000 50  0001 C CNN
	1    4850 4000
	1    0    0    -1  
$EndComp
$Comp
L Switch:SW_SPST SW23
U 1 1 5CF98E32
P 4900 3650
F 0 "SW23" H 4900 3885 50  0000 C CNN
F 1 "SW_SPST" H 4900 3794 50  0000 C CNN
F 2 "Keyboard:CHERRY_PCB_100H" H 4900 3650 50  0001 C CNN
F 3 "~" H 4900 3650 50  0001 C CNN
	1    4900 3650
	1    0    0    1   
$EndComp
Wire Wire Line
	4400 4000 4600 4000
Wire Wire Line
	4500 3650 4500 3550
Wire Wire Line
	4100 3650 4100 4000
$Comp
L Device:D D18
U 1 1 5CF98E3B
P 4250 4000
F 0 "D18" H 4250 3784 50  0000 C CNN
F 1 "D" H 4250 3875 50  0000 C CNN
F 2 "Diodes_SMD:D_SOD-123" H 4250 4000 50  0001 C CNN
F 3 "~" H 4250 4000 50  0001 C CNN
	1    4250 4000
	1    0    0    -1  
$EndComp
$Comp
L Switch:SW_SPST SW18
U 1 1 5CF98E41
P 4300 3650
F 0 "SW18" H 4300 3885 50  0000 C CNN
F 1 "SW_SPST" H 4300 3794 50  0000 C CNN
F 2 "Keyboard:CHERRY_PCB_100H" H 4300 3650 50  0001 C CNN
F 3 "~" H 4300 3650 50  0001 C CNN
	1    4300 3650
	1    0    0    1   
$EndComp
Wire Wire Line
	3800 4000 4000 4000
Wire Wire Line
	3900 3650 3900 3550
Wire Wire Line
	3500 3650 3500 4000
$Comp
L Device:D D13
U 1 1 5CF98E4A
P 3650 4000
F 0 "D13" H 3650 3784 50  0000 C CNN
F 1 "D" H 3650 3875 50  0000 C CNN
F 2 "Diodes_SMD:D_SOD-123" H 3650 4000 50  0001 C CNN
F 3 "~" H 3650 4000 50  0001 C CNN
	1    3650 4000
	1    0    0    -1  
$EndComp
$Comp
L Switch:SW_SPST SW13
U 1 1 5CF98E50
P 3700 3650
F 0 "SW13" H 3700 3885 50  0000 C CNN
F 1 "SW_SPST" H 3700 3794 50  0000 C CNN
F 2 "Keyboard:CHERRY_PCB_100H" H 3700 3650 50  0001 C CNN
F 3 "~" H 3700 3650 50  0001 C CNN
	1    3700 3650
	1    0    0    1   
$EndComp
Wire Wire Line
	3200 4000 3400 4000
Wire Wire Line
	3300 3650 3300 3550
Wire Wire Line
	2900 3650 2900 4000
$Comp
L Device:D D8
U 1 1 5CF98E59
P 3050 4000
F 0 "D8" H 3050 3784 50  0000 C CNN
F 1 "D" H 3050 3875 50  0000 C CNN
F 2 "Diodes_SMD:D_SOD-123" H 3050 4000 50  0001 C CNN
F 3 "~" H 3050 4000 50  0001 C CNN
	1    3050 4000
	1    0    0    -1  
$EndComp
$Comp
L Switch:SW_SPST SW8
U 1 1 5CF98E5F
P 3100 3650
F 0 "SW8" H 3100 3885 50  0000 C CNN
F 1 "SW_SPST" H 3100 3794 50  0000 C CNN
F 2 "Keyboard:CHERRY_PCB_100H" H 3100 3650 50  0001 C CNN
F 3 "~" H 3100 3650 50  0001 C CNN
	1    3100 3650
	1    0    0    1   
$EndComp
$Comp
L Switch:SW_SPST SW4
U 1 1 5CFA11E1
P 2500 4450
F 0 "SW4" H 2500 4685 50  0000 C CNN
F 1 "SW_SPST" H 2500 4594 50  0000 C CNN
F 2 "Keyboard:CHERRY_PCB_125H" H 2500 4450 50  0001 C CNN
F 3 "~" H 2500 4450 50  0001 C CNN
	1    2500 4450
	1    0    0    1   
$EndComp
$Comp
L Device:D D4
U 1 1 5CFA11E7
P 2450 4800
F 0 "D4" H 2450 4584 50  0000 C CNN
F 1 "D" H 2450 4675 50  0000 C CNN
F 2 "Diodes_SMD:D_SOD-123" H 2450 4800 50  0001 C CNN
F 3 "~" H 2450 4800 50  0001 C CNN
	1    2450 4800
	1    0    0    -1  
$EndComp
Wire Wire Line
	2300 4450 2300 4800
Wire Wire Line
	2700 4450 2700 4350
Wire Wire Line
	2600 4800 2800 4800
Wire Wire Line
	9200 4800 9400 4800
Wire Wire Line
	9300 4450 9300 4350
Wire Wire Line
	8900 4450 8900 4800
$Comp
L Device:D D59
U 1 1 5CFA11F3
P 9050 4800
F 0 "D59" H 9050 4584 50  0000 C CNN
F 1 "D" H 9050 4675 50  0000 C CNN
F 2 "Diodes_SMD:D_SOD-123" H 9050 4800 50  0001 C CNN
F 3 "~" H 9050 4800 50  0001 C CNN
	1    9050 4800
	1    0    0    -1  
$EndComp
$Comp
L Switch:SW_SPST SW59
U 1 1 5CFA11F9
P 9100 4450
F 0 "SW59" H 9100 4685 50  0000 C CNN
F 1 "SW_SPST" H 9100 4594 50  0000 C CNN
F 2 "Keyboard:CHERRY_PCB_125H" H 9100 4450 50  0001 C CNN
F 3 "~" H 9100 4450 50  0001 C CNN
	1    9100 4450
	1    0    0    1   
$EndComp
Wire Wire Line
	8600 4800 8800 4800
Wire Wire Line
	8700 4450 8700 4350
Wire Wire Line
	8300 4450 8300 4800
$Comp
L Device:D D54
U 1 1 5CFA1202
P 8450 4800
F 0 "D54" H 8450 4584 50  0000 C CNN
F 1 "D" H 8450 4675 50  0000 C CNN
F 2 "Diodes_SMD:D_SOD-123" H 8450 4800 50  0001 C CNN
F 3 "~" H 8450 4800 50  0001 C CNN
	1    8450 4800
	1    0    0    -1  
$EndComp
$Comp
L Switch:SW_SPST SW54
U 1 1 5CFA1208
P 8500 4450
F 0 "SW54" H 8500 4685 50  0000 C CNN
F 1 "SW_SPST" H 8500 4594 50  0000 C CNN
F 2 "Keyboard:CHERRY_PCB_100H" H 8500 4450 50  0001 C CNN
F 3 "~" H 8500 4450 50  0001 C CNN
	1    8500 4450
	1    0    0    1   
$EndComp
Wire Wire Line
	8000 4800 8200 4800
Wire Wire Line
	8100 4450 8100 4350
Wire Wire Line
	7700 4450 7700 4800
$Comp
L Device:D D49
U 1 1 5CFA1211
P 7850 4800
F 0 "D49" H 7850 4584 50  0000 C CNN
F 1 "D" H 7850 4675 50  0000 C CNN
F 2 "Diodes_SMD:D_SOD-123" H 7850 4800 50  0001 C CNN
F 3 "~" H 7850 4800 50  0001 C CNN
	1    7850 4800
	1    0    0    -1  
$EndComp
$Comp
L Switch:SW_SPST SW49
U 1 1 5CFA1217
P 7900 4450
F 0 "SW49" H 7900 4685 50  0000 C CNN
F 1 "SW_SPST" H 7900 4594 50  0000 C CNN
F 2 "Keyboard:CHERRY_PCB_100H" H 7900 4450 50  0001 C CNN
F 3 "~" H 7900 4450 50  0001 C CNN
	1    7900 4450
	1    0    0    1   
$EndComp
Wire Wire Line
	7400 4800 7600 4800
Wire Wire Line
	7500 4450 7500 4350
Wire Wire Line
	7100 4450 7100 4800
$Comp
L Device:D D44
U 1 1 5CFA1220
P 7250 4800
F 0 "D44" H 7250 4584 50  0000 C CNN
F 1 "D" H 7250 4675 50  0000 C CNN
F 2 "Diodes_SMD:D_SOD-123" H 7250 4800 50  0001 C CNN
F 3 "~" H 7250 4800 50  0001 C CNN
	1    7250 4800
	1    0    0    -1  
$EndComp
$Comp
L Switch:SW_SPST SW44
U 1 1 5CFA1226
P 7300 4450
F 0 "SW44" H 7300 4685 50  0000 C CNN
F 1 "SW_SPST" H 7300 4594 50  0000 C CNN
F 2 "Keyboard:CHERRY_PCB_100H" H 7300 4450 50  0001 C CNN
F 3 "~" H 7300 4450 50  0001 C CNN
	1    7300 4450
	1    0    0    1   
$EndComp
Wire Wire Line
	6800 4800 7000 4800
Wire Wire Line
	6900 4450 6900 4350
Wire Wire Line
	6500 4450 6500 4800
$Comp
L Device:D D39
U 1 1 5CFA122F
P 6650 4800
F 0 "D39" H 6650 4584 50  0000 C CNN
F 1 "D" H 6650 4675 50  0000 C CNN
F 2 "Diodes_SMD:D_SOD-123" H 6650 4800 50  0001 C CNN
F 3 "~" H 6650 4800 50  0001 C CNN
	1    6650 4800
	1    0    0    -1  
$EndComp
$Comp
L Switch:SW_SPST SW39
U 1 1 5CFA1235
P 6700 4450
F 0 "SW39" H 6700 4685 50  0000 C CNN
F 1 "SW_SPST" H 6700 4594 50  0000 C CNN
F 2 "Keyboard:CHERRY_PCB_100H" H 6700 4450 50  0001 C CNN
F 3 "~" H 6700 4450 50  0001 C CNN
	1    6700 4450
	1    0    0    1   
$EndComp
Wire Wire Line
	6200 4800 6400 4800
Wire Wire Line
	6300 4450 6300 4350
Wire Wire Line
	5900 4450 5900 4800
$Comp
L Device:D D34
U 1 1 5CFA123E
P 6050 4800
F 0 "D34" H 6050 4584 50  0000 C CNN
F 1 "D" H 6050 4675 50  0000 C CNN
F 2 "Diodes_SMD:D_SOD-123" H 6050 4800 50  0001 C CNN
F 3 "~" H 6050 4800 50  0001 C CNN
	1    6050 4800
	1    0    0    -1  
$EndComp
$Comp
L Switch:SW_SPST SW34
U 1 1 5CFA1244
P 6100 4450
F 0 "SW34" H 6100 4685 50  0000 C CNN
F 1 "SW_SPST" H 6100 4594 50  0000 C CNN
F 2 "Keyboard:CHERRY_PCB_100H" H 6100 4450 50  0001 C CNN
F 3 "~" H 6100 4450 50  0001 C CNN
	1    6100 4450
	1    0    0    1   
$EndComp
Wire Wire Line
	5600 4800 5800 4800
Wire Wire Line
	5700 4450 5700 4350
Wire Wire Line
	5300 4450 5300 4800
$Comp
L Device:D D29
U 1 1 5CFA124D
P 5450 4800
F 0 "D29" H 5450 4584 50  0000 C CNN
F 1 "D" H 5450 4675 50  0000 C CNN
F 2 "Diodes_SMD:D_SOD-123" H 5450 4800 50  0001 C CNN
F 3 "~" H 5450 4800 50  0001 C CNN
	1    5450 4800
	1    0    0    -1  
$EndComp
$Comp
L Switch:SW_SPST SW29
U 1 1 5CFA1253
P 5500 4450
F 0 "SW29" H 5500 4685 50  0000 C CNN
F 1 "SW_SPST" H 5500 4594 50  0000 C CNN
F 2 "Keyboard:CHERRY_PCB_100H" H 5500 4450 50  0001 C CNN
F 3 "~" H 5500 4450 50  0001 C CNN
	1    5500 4450
	1    0    0    1   
$EndComp
Wire Wire Line
	5000 4800 5200 4800
Wire Wire Line
	5100 4450 5100 4350
Wire Wire Line
	4700 4450 4700 4800
$Comp
L Device:D D24
U 1 1 5CFA125C
P 4850 4800
F 0 "D24" H 4850 4584 50  0000 C CNN
F 1 "D" H 4850 4675 50  0000 C CNN
F 2 "Diodes_SMD:D_SOD-123" H 4850 4800 50  0001 C CNN
F 3 "~" H 4850 4800 50  0001 C CNN
	1    4850 4800
	1    0    0    -1  
$EndComp
$Comp
L Switch:SW_SPST SW24
U 1 1 5CFA1262
P 4900 4450
F 0 "SW24" H 4900 4685 50  0000 C CNN
F 1 "SW_SPST" H 4900 4594 50  0000 C CNN
F 2 "Keyboard:CHERRY_PCB_100H" H 4900 4450 50  0001 C CNN
F 3 "~" H 4900 4450 50  0001 C CNN
	1    4900 4450
	1    0    0    1   
$EndComp
Wire Wire Line
	4400 4800 4600 4800
Wire Wire Line
	4500 4450 4500 4350
Wire Wire Line
	4100 4450 4100 4800
$Comp
L Device:D D19
U 1 1 5CFA126B
P 4250 4800
F 0 "D19" H 4250 4584 50  0000 C CNN
F 1 "D" H 4250 4675 50  0000 C CNN
F 2 "Diodes_SMD:D_SOD-123" H 4250 4800 50  0001 C CNN
F 3 "~" H 4250 4800 50  0001 C CNN
	1    4250 4800
	1    0    0    -1  
$EndComp
$Comp
L Switch:SW_SPST SW19
U 1 1 5CFA1271
P 4300 4450
F 0 "SW19" H 4300 4685 50  0000 C CNN
F 1 "SW_SPST" H 4300 4594 50  0000 C CNN
F 2 "Keyboard:CHERRY_PCB_100H" H 4300 4450 50  0001 C CNN
F 3 "~" H 4300 4450 50  0001 C CNN
	1    4300 4450
	1    0    0    1   
$EndComp
Wire Wire Line
	3800 4800 4000 4800
Wire Wire Line
	3900 4450 3900 4350
Wire Wire Line
	3500 4450 3500 4800
$Comp
L Device:D D14
U 1 1 5CFA127A
P 3650 4800
F 0 "D14" H 3650 4584 50  0000 C CNN
F 1 "D" H 3650 4675 50  0000 C CNN
F 2 "Diodes_SMD:D_SOD-123" H 3650 4800 50  0001 C CNN
F 3 "~" H 3650 4800 50  0001 C CNN
	1    3650 4800
	1    0    0    -1  
$EndComp
$Comp
L Switch:SW_SPST SW14
U 1 1 5CFA1280
P 3700 4450
F 0 "SW14" H 3700 4685 50  0000 C CNN
F 1 "SW_SPST" H 3700 4594 50  0000 C CNN
F 2 "Keyboard:CHERRY_PCB_100H" H 3700 4450 50  0001 C CNN
F 3 "~" H 3700 4450 50  0001 C CNN
	1    3700 4450
	1    0    0    1   
$EndComp
Wire Wire Line
	3200 4800 3400 4800
Wire Wire Line
	3300 4450 3300 4350
Wire Wire Line
	2900 4450 2900 4800
$Comp
L Device:D D9
U 1 1 5CFA1289
P 3050 4800
F 0 "D9" H 3050 4584 50  0000 C CNN
F 1 "D" H 3050 4675 50  0000 C CNN
F 2 "Diodes_SMD:D_SOD-123" H 3050 4800 50  0001 C CNN
F 3 "~" H 3050 4800 50  0001 C CNN
	1    3050 4800
	1    0    0    -1  
$EndComp
$Comp
L Switch:SW_SPST SW9
U 1 1 5CFA128F
P 3100 4450
F 0 "SW9" H 3100 4685 50  0000 C CNN
F 1 "SW_SPST" H 3100 4594 50  0000 C CNN
F 2 "Keyboard:CHERRY_PCB_100H" H 3100 4450 50  0001 C CNN
F 3 "~" H 3100 4450 50  0001 C CNN
	1    3100 4450
	1    0    0    1   
$EndComp
$Comp
L Switch:SW_SPST SW5
U 1 1 5CFB4FC3
P 2500 5250
F 0 "SW5" H 2500 5485 50  0000 C CNN
F 1 "SW_SPST" H 2500 5394 50  0000 C CNN
F 2 "Keyboard:CHERRY_PCB_125H" H 2500 5250 50  0001 C CNN
F 3 "~" H 2500 5250 50  0001 C CNN
	1    2500 5250
	1    0    0    1   
$EndComp
$Comp
L Device:D D5
U 1 1 5CFB4FC9
P 2450 5600
F 0 "D5" H 2450 5384 50  0000 C CNN
F 1 "D" H 2450 5475 50  0000 C CNN
F 2 "Diodes_SMD:D_SOD-123" H 2450 5600 50  0001 C CNN
F 3 "~" H 2450 5600 50  0001 C CNN
	1    2450 5600
	1    0    0    -1  
$EndComp
Wire Wire Line
	2300 5250 2300 5600
Wire Wire Line
	2700 5250 2700 5150
Wire Wire Line
	2600 5600 2800 5600
Wire Wire Line
	9200 5600 9400 5600
Wire Wire Line
	9300 5250 9300 5150
Wire Wire Line
	8900 5250 8900 5600
$Comp
L Device:D D60
U 1 1 5CFB4FD5
P 9050 5600
F 0 "D60" H 9050 5384 50  0000 C CNN
F 1 "D" H 9050 5475 50  0000 C CNN
F 2 "Diodes_SMD:D_SOD-123" H 9050 5600 50  0001 C CNN
F 3 "~" H 9050 5600 50  0001 C CNN
	1    9050 5600
	1    0    0    -1  
$EndComp
$Comp
L Switch:SW_SPST SW60
U 1 1 5CFB4FDB
P 9100 5250
F 0 "SW60" H 9100 5485 50  0000 C CNN
F 1 "SW_SPST" H 9100 5394 50  0000 C CNN
F 2 "Keyboard:CHERRY_PCB_125H" H 9100 5250 50  0001 C CNN
F 3 "~" H 9100 5250 50  0001 C CNN
	1    9100 5250
	1    0    0    1   
$EndComp
Wire Wire Line
	8600 5600 8800 5600
Wire Wire Line
	8700 5250 8700 5150
Wire Wire Line
	8300 5250 8300 5600
$Comp
L Device:D D55
U 1 1 5CFB4FE4
P 8450 5600
F 0 "D55" H 8450 5384 50  0000 C CNN
F 1 "D" H 8450 5475 50  0000 C CNN
F 2 "Diodes_SMD:D_SOD-123" H 8450 5600 50  0001 C CNN
F 3 "~" H 8450 5600 50  0001 C CNN
	1    8450 5600
	1    0    0    -1  
$EndComp
$Comp
L Switch:SW_SPST SW55
U 1 1 5CFB4FEA
P 8500 5250
F 0 "SW55" H 8500 5485 50  0000 C CNN
F 1 "SW_SPST" H 8500 5394 50  0000 C CNN
F 2 "Keyboard:CHERRY_PCB_100H" H 8500 5250 50  0001 C CNN
F 3 "~" H 8500 5250 50  0001 C CNN
	1    8500 5250
	1    0    0    1   
$EndComp
Wire Wire Line
	8000 5600 8200 5600
Wire Wire Line
	8100 5250 8100 5150
Wire Wire Line
	7700 5250 7700 5600
$Comp
L Device:D D50
U 1 1 5CFB4FF3
P 7850 5600
F 0 "D50" H 7850 5384 50  0000 C CNN
F 1 "D" H 7850 5475 50  0000 C CNN
F 2 "Diodes_SMD:D_SOD-123" H 7850 5600 50  0001 C CNN
F 3 "~" H 7850 5600 50  0001 C CNN
	1    7850 5600
	1    0    0    -1  
$EndComp
$Comp
L Switch:SW_SPST SW50
U 1 1 5CFB4FF9
P 7900 5250
F 0 "SW50" H 7900 5485 50  0000 C CNN
F 1 "SW_SPST" H 7900 5394 50  0000 C CNN
F 2 "Keyboard:CHERRY_PCB_100H" H 7900 5250 50  0001 C CNN
F 3 "~" H 7900 5250 50  0001 C CNN
	1    7900 5250
	1    0    0    1   
$EndComp
Wire Wire Line
	7400 5600 7600 5600
Wire Wire Line
	7500 5250 7500 5150
Wire Wire Line
	7100 5250 7100 5600
$Comp
L Device:D D45
U 1 1 5CFB5002
P 7250 5600
F 0 "D45" H 7250 5384 50  0000 C CNN
F 1 "D" H 7250 5475 50  0000 C CNN
F 2 "Diodes_SMD:D_SOD-123" H 7250 5600 50  0001 C CNN
F 3 "~" H 7250 5600 50  0001 C CNN
	1    7250 5600
	1    0    0    -1  
$EndComp
$Comp
L Switch:SW_SPST SW45
U 1 1 5CFB5008
P 7300 5250
F 0 "SW45" H 7300 5485 50  0000 C CNN
F 1 "SW_SPST" H 7300 5394 50  0000 C CNN
F 2 "Keyboard:CHERRY_PCB_100H" H 7300 5250 50  0001 C CNN
F 3 "~" H 7300 5250 50  0001 C CNN
	1    7300 5250
	1    0    0    1   
$EndComp
Wire Wire Line
	6800 5600 7000 5600
Wire Wire Line
	6900 5250 6900 5150
Wire Wire Line
	6500 5250 6500 5600
$Comp
L Device:D D40
U 1 1 5CFB5011
P 6650 5600
F 0 "D40" H 6650 5384 50  0000 C CNN
F 1 "D" H 6650 5475 50  0000 C CNN
F 2 "Diodes_SMD:D_SOD-123" H 6650 5600 50  0001 C CNN
F 3 "~" H 6650 5600 50  0001 C CNN
	1    6650 5600
	1    0    0    -1  
$EndComp
$Comp
L Switch:SW_SPST SW40
U 1 1 5CFB5017
P 6700 5250
F 0 "SW40" H 6700 5485 50  0000 C CNN
F 1 "SW_SPST" H 6700 5394 50  0000 C CNN
F 2 "Keyboard:CHERRY_PCB_100H" H 6700 5250 50  0001 C CNN
F 3 "~" H 6700 5250 50  0001 C CNN
	1    6700 5250
	1    0    0    1   
$EndComp
Wire Wire Line
	6200 5600 6400 5600
Wire Wire Line
	6300 5250 6300 5150
Wire Wire Line
	5900 5250 5900 5600
$Comp
L Device:D D35
U 1 1 5CFB5020
P 6050 5600
F 0 "D35" H 6050 5384 50  0000 C CNN
F 1 "D" H 6050 5475 50  0000 C CNN
F 2 "Diodes_SMD:D_SOD-123" H 6050 5600 50  0001 C CNN
F 3 "~" H 6050 5600 50  0001 C CNN
	1    6050 5600
	1    0    0    -1  
$EndComp
$Comp
L Switch:SW_SPST SW35
U 1 1 5CFB5026
P 6100 5250
F 0 "SW35" H 6100 5485 50  0000 C CNN
F 1 "SW_SPST" H 6100 5394 50  0000 C CNN
F 2 "Keyboard:CHERRY_PCB_100H" H 6100 5250 50  0001 C CNN
F 3 "~" H 6100 5250 50  0001 C CNN
	1    6100 5250
	1    0    0    1   
$EndComp
Wire Wire Line
	5600 5600 5800 5600
Wire Wire Line
	5700 5250 5700 5150
Wire Wire Line
	5300 5250 5300 5600
$Comp
L Device:D D30
U 1 1 5CFB502F
P 5450 5600
F 0 "D30" H 5450 5384 50  0000 C CNN
F 1 "D" H 5450 5475 50  0000 C CNN
F 2 "Diodes_SMD:D_SOD-123" H 5450 5600 50  0001 C CNN
F 3 "~" H 5450 5600 50  0001 C CNN
	1    5450 5600
	1    0    0    -1  
$EndComp
$Comp
L Switch:SW_SPST SW30
U 1 1 5CFB5035
P 5500 5250
F 0 "SW30" H 5500 5485 50  0000 C CNN
F 1 "SW_SPST" H 5500 5394 50  0000 C CNN
F 2 "Keyboard:CHERRY_PCB_100H" H 5500 5250 50  0001 C CNN
F 3 "~" H 5500 5250 50  0001 C CNN
	1    5500 5250
	1    0    0    1   
$EndComp
Wire Wire Line
	5000 5600 5200 5600
Wire Wire Line
	5100 5250 5100 5150
Wire Wire Line
	4700 5250 4700 5600
$Comp
L Device:D D25
U 1 1 5CFB503E
P 4850 5600
F 0 "D25" H 4850 5384 50  0000 C CNN
F 1 "D" H 4850 5475 50  0000 C CNN
F 2 "Diodes_SMD:D_SOD-123" H 4850 5600 50  0001 C CNN
F 3 "~" H 4850 5600 50  0001 C CNN
	1    4850 5600
	1    0    0    -1  
$EndComp
$Comp
L Switch:SW_SPST SW25
U 1 1 5CFB5044
P 4900 5250
F 0 "SW25" H 4900 5485 50  0000 C CNN
F 1 "SW_SPST" H 4900 5394 50  0000 C CNN
F 2 "Keyboard:CHERRY_PCB_100H" H 4900 5250 50  0001 C CNN
F 3 "~" H 4900 5250 50  0001 C CNN
	1    4900 5250
	1    0    0    1   
$EndComp
Wire Wire Line
	4400 5600 4600 5600
Wire Wire Line
	4500 5250 4500 5150
Wire Wire Line
	4100 5250 4100 5600
$Comp
L Device:D D20
U 1 1 5CFB504D
P 4250 5600
F 0 "D20" H 4250 5384 50  0000 C CNN
F 1 "D" H 4250 5475 50  0000 C CNN
F 2 "Diodes_SMD:D_SOD-123" H 4250 5600 50  0001 C CNN
F 3 "~" H 4250 5600 50  0001 C CNN
	1    4250 5600
	1    0    0    -1  
$EndComp
$Comp
L Switch:SW_SPST SW20
U 1 1 5CFB5053
P 4300 5250
F 0 "SW20" H 4300 5485 50  0000 C CNN
F 1 "SW_SPST" H 4300 5394 50  0000 C CNN
F 2 "Keyboard:CHERRY_PCB_100H" H 4300 5250 50  0001 C CNN
F 3 "~" H 4300 5250 50  0001 C CNN
	1    4300 5250
	1    0    0    1   
$EndComp
Wire Wire Line
	3800 5600 4000 5600
Wire Wire Line
	3900 5250 3900 5150
Wire Wire Line
	3500 5250 3500 5600
$Comp
L Device:D D15
U 1 1 5CFB505C
P 3650 5600
F 0 "D15" H 3650 5384 50  0000 C CNN
F 1 "D" H 3650 5475 50  0000 C CNN
F 2 "Diodes_SMD:D_SOD-123" H 3650 5600 50  0001 C CNN
F 3 "~" H 3650 5600 50  0001 C CNN
	1    3650 5600
	1    0    0    -1  
$EndComp
$Comp
L Switch:SW_SPST SW15
U 1 1 5CFB5062
P 3700 5250
F 0 "SW15" H 3700 5485 50  0000 C CNN
F 1 "SW_SPST" H 3700 5394 50  0000 C CNN
F 2 "Keyboard:CHERRY_PCB_100H" H 3700 5250 50  0001 C CNN
F 3 "~" H 3700 5250 50  0001 C CNN
	1    3700 5250
	1    0    0    1   
$EndComp
Wire Wire Line
	3200 5600 3400 5600
Wire Wire Line
	3300 5250 3300 5150
Wire Wire Line
	2900 5250 2900 5600
$Comp
L Device:D D10
U 1 1 5CFB506B
P 3050 5600
F 0 "D10" H 3050 5384 50  0000 C CNN
F 1 "D" H 3050 5475 50  0000 C CNN
F 2 "Diodes_SMD:D_SOD-123" H 3050 5600 50  0001 C CNN
F 3 "~" H 3050 5600 50  0001 C CNN
	1    3050 5600
	1    0    0    -1  
$EndComp
$Comp
L Switch:SW_SPST SW10
U 1 1 5CFB5071
P 3100 5250
F 0 "SW10" H 3100 5485 50  0000 C CNN
F 1 "SW_SPST" H 3100 5394 50  0000 C CNN
F 2 "Keyboard:CHERRY_PCB_100H" H 3100 5250 50  0001 C CNN
F 3 "~" H 3100 5250 50  0001 C CNN
	1    3100 5250
	1    0    0    1   
$EndComp
Wire Wire Line
	9300 1950 8700 1950
Wire Wire Line
	8700 1950 8100 1950
Connection ~ 8700 1950
Connection ~ 2700 1950
Connection ~ 3300 1950
Wire Wire Line
	3300 1950 2700 1950
Connection ~ 3900 1950
Wire Wire Line
	3900 1950 3300 1950
Connection ~ 4500 1950
Wire Wire Line
	4500 1950 3900 1950
Connection ~ 5100 1950
Wire Wire Line
	5100 1950 4500 1950
Connection ~ 5700 1950
Wire Wire Line
	5700 1950 5100 1950
Connection ~ 6300 1950
Wire Wire Line
	6300 1950 5700 1950
Connection ~ 6900 1950
Wire Wire Line
	6900 1950 6300 1950
Connection ~ 7500 1950
Wire Wire Line
	7500 1950 6900 1950
Connection ~ 8100 1950
Wire Wire Line
	8100 1950 7500 1950
Wire Wire Line
	9300 2750 8700 2750
Connection ~ 2700 2750
Connection ~ 3300 2750
Wire Wire Line
	3300 2750 2700 2750
Connection ~ 3900 2750
Wire Wire Line
	3900 2750 3300 2750
Connection ~ 4500 2750
Wire Wire Line
	4500 2750 3900 2750
Connection ~ 5100 2750
Wire Wire Line
	5100 2750 4500 2750
Connection ~ 5700 2750
Wire Wire Line
	5700 2750 5100 2750
Connection ~ 6300 2750
Wire Wire Line
	6300 2750 5700 2750
Connection ~ 6900 2750
Wire Wire Line
	6900 2750 6300 2750
Connection ~ 7500 2750
Wire Wire Line
	7500 2750 6900 2750
Connection ~ 8100 2750
Wire Wire Line
	8100 2750 7500 2750
Connection ~ 8700 2750
Wire Wire Line
	8700 2750 8100 2750
Wire Wire Line
	9300 3550 8700 3550
Connection ~ 2700 3550
Connection ~ 3300 3550
Wire Wire Line
	3300 3550 2700 3550
Connection ~ 3900 3550
Wire Wire Line
	3900 3550 3300 3550
Connection ~ 4500 3550
Wire Wire Line
	4500 3550 3900 3550
Connection ~ 5100 3550
Wire Wire Line
	5100 3550 4500 3550
Connection ~ 5700 3550
Wire Wire Line
	5700 3550 5100 3550
Connection ~ 6300 3550
Wire Wire Line
	6300 3550 5700 3550
Connection ~ 6900 3550
Wire Wire Line
	6900 3550 6300 3550
Connection ~ 7500 3550
Wire Wire Line
	7500 3550 6900 3550
Connection ~ 8100 3550
Wire Wire Line
	8100 3550 7500 3550
Connection ~ 8700 3550
Wire Wire Line
	8700 3550 8100 3550
Wire Wire Line
	9300 4350 8700 4350
Connection ~ 2700 4350
Connection ~ 3300 4350
Wire Wire Line
	3300 4350 2700 4350
Connection ~ 3900 4350
Wire Wire Line
	3900 4350 3300 4350
Connection ~ 4500 4350
Wire Wire Line
	4500 4350 3900 4350
Connection ~ 5100 4350
Wire Wire Line
	5100 4350 4500 4350
Connection ~ 5700 4350
Wire Wire Line
	5700 4350 5100 4350
Connection ~ 6300 4350
Wire Wire Line
	6300 4350 5700 4350
Connection ~ 6900 4350
Wire Wire Line
	6900 4350 6300 4350
Connection ~ 7500 4350
Wire Wire Line
	7500 4350 6900 4350
Connection ~ 8100 4350
Wire Wire Line
	8100 4350 7500 4350
Connection ~ 8700 4350
Wire Wire Line
	8700 4350 8100 4350
Wire Wire Line
	9300 5150 8700 5150
Connection ~ 2700 5150
Connection ~ 3300 5150
Wire Wire Line
	3300 5150 2700 5150
Connection ~ 3900 5150
Wire Wire Line
	3900 5150 3300 5150
Connection ~ 4500 5150
Wire Wire Line
	4500 5150 3900 5150
Connection ~ 5100 5150
Wire Wire Line
	5100 5150 4500 5150
Connection ~ 5700 5150
Wire Wire Line
	5700 5150 5100 5150
Connection ~ 6300 5150
Wire Wire Line
	6300 5150 5700 5150
Connection ~ 6900 5150
Wire Wire Line
	6900 5150 6300 5150
Connection ~ 7500 5150
Wire Wire Line
	7500 5150 6900 5150
Connection ~ 8100 5150
Wire Wire Line
	8100 5150 7500 5150
Connection ~ 8700 5150
Wire Wire Line
	8700 5150 8100 5150
Wire Wire Line
	9400 5600 9400 4800
Connection ~ 9400 3200
Wire Wire Line
	9400 3200 9400 2400
Connection ~ 9400 4000
Wire Wire Line
	9400 4000 9400 3200
Connection ~ 9400 4800
Wire Wire Line
	9400 4800 9400 4000
Wire Wire Line
	8800 5600 8800 4800
Connection ~ 8800 3200
Wire Wire Line
	8800 3200 8800 2400
Connection ~ 8800 4000
Wire Wire Line
	8800 4000 8800 3200
Connection ~ 8800 4800
Wire Wire Line
	8800 4800 8800 4000
Wire Wire Line
	8200 5600 8200 4800
Connection ~ 8200 3200
Wire Wire Line
	8200 3200 8200 2400
Connection ~ 8200 4000
Wire Wire Line
	8200 4000 8200 3200
Connection ~ 8200 4800
Wire Wire Line
	8200 4800 8200 4000
Wire Wire Line
	7600 5600 7600 4800
Connection ~ 7600 3200
Wire Wire Line
	7600 3200 7600 2400
Connection ~ 7600 4000
Wire Wire Line
	7600 4000 7600 3200
Connection ~ 7600 4800
Wire Wire Line
	7600 4800 7600 4000
Wire Wire Line
	7000 5600 7000 4800
Connection ~ 7000 3200
Wire Wire Line
	7000 3200 7000 2400
Connection ~ 7000 4000
Wire Wire Line
	7000 4000 7000 3200
Connection ~ 7000 4800
Wire Wire Line
	7000 4800 7000 4000
Wire Wire Line
	6400 5600 6400 4800
Connection ~ 6400 3200
Wire Wire Line
	6400 3200 6400 2400
Connection ~ 6400 4000
Wire Wire Line
	6400 4000 6400 3200
Connection ~ 6400 4800
Wire Wire Line
	6400 4800 6400 4000
Wire Wire Line
	5800 5600 5800 4800
Connection ~ 5800 3200
Wire Wire Line
	5800 3200 5800 2400
Connection ~ 5800 4000
Wire Wire Line
	5800 4000 5800 3200
Connection ~ 5800 4800
Wire Wire Line
	5800 4800 5800 4000
Wire Wire Line
	5200 5600 5200 4800
Connection ~ 5200 3200
Wire Wire Line
	5200 3200 5200 2400
Connection ~ 5200 4000
Wire Wire Line
	5200 4000 5200 3200
Connection ~ 5200 4800
Wire Wire Line
	5200 4800 5200 4000
Wire Wire Line
	4600 5600 4600 4800
Connection ~ 4600 3200
Wire Wire Line
	4600 3200 4600 2400
Connection ~ 4600 4000
Wire Wire Line
	4600 4000 4600 3200
Connection ~ 4600 4800
Wire Wire Line
	4600 4800 4600 4000
Wire Wire Line
	4000 5600 4000 4800
Connection ~ 4000 3200
Wire Wire Line
	4000 3200 4000 2400
Connection ~ 4000 4000
Wire Wire Line
	4000 4000 4000 3200
Connection ~ 4000 4800
Wire Wire Line
	4000 4800 4000 4000
Wire Wire Line
	3400 5600 3400 4800
Connection ~ 3400 3200
Wire Wire Line
	3400 3200 3400 2400
Connection ~ 3400 4000
Wire Wire Line
	3400 4000 3400 3200
Connection ~ 3400 4800
Wire Wire Line
	3400 4800 3400 4000
Wire Wire Line
	2800 5600 2800 4800
Connection ~ 2800 3200
Wire Wire Line
	2800 3200 2800 2400
Connection ~ 2800 4000
Wire Wire Line
	2800 4000 2800 3200
Connection ~ 2800 4800
Wire Wire Line
	2800 4800 2800 4000
Wire Wire Line
	2700 5150 2200 5150
Wire Wire Line
	2700 4350 2200 4350
Wire Wire Line
	2700 3550 2200 3550
Wire Wire Line
	2700 2750 2200 2750
Wire Wire Line
	2700 1950 2200 1950
Text GLabel 2200 1950 0    50   Input ~ 0
ROW0
Text GLabel 2200 2750 0    50   Input ~ 0
ROW1
Text GLabel 2200 3550 0    50   Input ~ 0
ROW2
Connection ~ 2800 2400
Connection ~ 3400 2400
Connection ~ 4000 2400
Connection ~ 4600 2400
Connection ~ 5200 2400
Connection ~ 5800 2400
Connection ~ 6400 2400
Connection ~ 7000 2400
Connection ~ 7600 2400
Connection ~ 8200 2400
Connection ~ 8800 2400
Connection ~ 9400 2400
Wire Wire Line
	2800 2400 2800 1850
Wire Wire Line
	3400 2400 3400 1850
Wire Wire Line
	4000 2400 4000 1850
Wire Wire Line
	4600 2400 4600 1850
Wire Wire Line
	5200 2400 5200 1850
Wire Wire Line
	5800 2400 5800 1850
Wire Wire Line
	6400 2400 6400 1850
Wire Wire Line
	7000 2400 7000 1850
Wire Wire Line
	7600 2400 7600 1850
Wire Wire Line
	8200 2400 8200 1850
Wire Wire Line
	8800 2400 8800 1850
Wire Wire Line
	9400 2400 9400 1850
Text GLabel 2200 4350 0    50   Input ~ 0
ROW3
Text GLabel 2200 5150 0    50   Input ~ 0
ROW4
Text GLabel 2800 1850 0    50   Input ~ 0
COL0
Text GLabel 3400 1850 0    50   Input ~ 0
COL1
Text GLabel 4000 1850 0    50   Input ~ 0
COL2
Text GLabel 4600 1850 0    50   Input ~ 0
COL3
Text GLabel 5200 1850 0    50   Input ~ 0
COL4
Text GLabel 5800 1850 0    50   Input ~ 0
COL5
Text GLabel 6400 1850 0    50   Input ~ 0
COL6
Text GLabel 7000 1850 0    50   Input ~ 0
COL7
Text GLabel 7600 1850 0    50   Input ~ 0
COL8
Text GLabel 8200 1850 0    50   Input ~ 0
COL9
Text GLabel 8800 1850 0    50   Input ~ 0
COL10
Text GLabel 9400 1850 0    50   Input ~ 0
COL11
$EndSCHEMATC
