EESchema Schematic File Version 4
LIBS:grid60-cache
EELAYER 29 0
EELAYER END
$Descr A4 11693 8268
encoding utf-8
Sheet 2 3
Title "Grid60: Microcontroller and power"
Date "2019-06-03"
Rev "A"
Comp "George Bryant"
Comment1 ""
Comment2 ""
Comment3 ""
Comment4 ""
$EndDescr
Wire Wire Line
	8350 5450 8450 5450
NoConn ~ 2100 1900
Wire Wire Line
	1700 2100 1800 2100
Wire Wire Line
	1800 2100 1800 2200
$Comp
L power:GND #PWR01
U 1 1 5D32549C
P 1800 2200
F 0 "#PWR01" H 1800 1950 50  0001 C CNN
F 1 "GND" H 1805 2027 50  0000 C CNN
F 2 "" H 1800 2200 50  0001 C CNN
F 3 "" H 1800 2200 50  0001 C CNN
	1    1800 2200
	1    0    0    -1  
$EndComp
Text GLabel 2300 1700 2    50   Input ~ 0
USB_D+
Text GLabel 2300 1800 2    50   Input ~ 0
USB_D-
Wire Wire Line
	2100 1700 2300 1700
Wire Wire Line
	2300 1800 2100 1800
$Comp
L Device:LED D63
U 1 1 5D32929C
P 3300 1650
F 0 "D63" V 3339 1533 50  0000 R CNN
F 1 "LED" V 3248 1533 50  0000 R CNN
F 2 "LEDs:LED_0805" H 3300 1650 50  0001 C CNN
F 3 "~" H 3300 1650 50  0001 C CNN
	1    3300 1650
	0    -1   -1   0   
$EndComp
Wire Wire Line
	3700 1500 3300 1500
Connection ~ 3300 1500
Wire Wire Line
	3300 1800 3300 1900
Text GLabel 6200 3150 0    50   Input ~ 0
USB_D+
Text GLabel 6200 3250 0    50   Input ~ 0
USB_D-
$Comp
L Device:R R3
U 1 1 5D32AADA
P 3300 2050
F 0 "R3" H 3370 2096 50  0000 L CNN
F 1 "1K" H 3370 2005 50  0000 L CNN
F 2 "Resistors_SMD:R_0805" V 3230 2050 50  0001 C CNN
F 3 "~" H 3300 2050 50  0001 C CNN
	1    3300 2050
	1    0    0    -1  
$EndComp
$Comp
L Device:R R5
U 1 1 5D333E17
P 6950 3150
F 0 "R5" V 6743 3150 50  0000 C CNN
F 1 "22R" V 6834 3150 50  0000 C CNN
F 2 "Resistors_SMD:R_0805" V 6880 3150 50  0001 C CNN
F 3 "~" H 6950 3150 50  0001 C CNN
	1    6950 3150
	0    1    1    0   
$EndComp
$Comp
L Device:R R4
U 1 1 5D3344EC
P 6550 3250
F 0 "R4" V 6757 3250 50  0000 C CNN
F 1 "22R" V 6666 3250 50  0000 C CNN
F 2 "Resistors_SMD:R_0805" V 6480 3250 50  0001 C CNN
F 3 "~" H 6550 3250 50  0001 C CNN
	1    6550 3250
	0    -1   -1   0   
$EndComp
Wire Wire Line
	6200 3250 6400 3250
Wire Wire Line
	6700 3250 7850 3250
Wire Wire Line
	7850 3150 7100 3150
Wire Wire Line
	6800 3150 6200 3150
$Comp
L Device:Crystal Y1
U 1 1 5D341911
P 6700 2450
F 0 "Y1" V 6654 2319 50  0000 R CNN
F 1 "16MHz" V 6745 2319 50  0000 R CNN
F 2 "Crystals:Crystal_HC49-U_Vertical" H 6700 2450 50  0001 C CNN
F 3 "~" H 6700 2450 50  0001 C CNN
	1    6700 2450
	0    -1   1    0   
$EndComp
Wire Wire Line
	7850 2350 7200 2350
Wire Wire Line
	7200 2350 7200 2300
Wire Wire Line
	7200 2300 6700 2300
Wire Wire Line
	7850 2550 7200 2550
Wire Wire Line
	7200 2550 7200 2600
Wire Wire Line
	7200 2600 6700 2600
$Comp
L Device:C C5
U 1 1 5D3443D3
P 6250 2300
F 0 "C5" V 6502 2300 50  0000 C CNN
F 1 "22pF" V 6411 2300 50  0000 C CNN
F 2 "Capacitors_SMD:C_0805" H 6288 2150 50  0001 C CNN
F 3 "~" H 6250 2300 50  0001 C CNN
	1    6250 2300
	0    -1   -1   0   
$EndComp
$Comp
L Device:C C6
U 1 1 5D344A0A
P 6250 2600
F 0 "C6" V 5998 2600 50  0000 C CNN
F 1 "22pF" V 6089 2600 50  0000 C CNN
F 2 "Capacitors_SMD:C_0805" H 6288 2450 50  0001 C CNN
F 3 "~" H 6250 2600 50  0001 C CNN
	1    6250 2600
	0    -1   1    0   
$EndComp
Wire Wire Line
	6700 2300 6400 2300
Connection ~ 6700 2300
Wire Wire Line
	6700 2600 6400 2600
Connection ~ 6700 2600
$Comp
L power:GND #PWR07
U 1 1 5D347357
P 5900 2600
F 0 "#PWR07" H 5900 2350 50  0001 C CNN
F 1 "GND" H 5905 2427 50  0000 C CNN
F 2 "" H 5900 2600 50  0001 C CNN
F 3 "" H 5900 2600 50  0001 C CNN
	1    5900 2600
	1    0    0    -1  
$EndComp
Wire Wire Line
	6100 2300 6100 2600
Wire Wire Line
	5900 2600 6100 2600
Connection ~ 6100 2600
$Comp
L Device:C C8
U 1 1 5D34B8B0
P 7750 3700
F 0 "C8" V 7498 3700 50  0000 C CNN
F 1 "1uF" V 7589 3700 50  0000 C CNN
F 2 "Capacitors_SMD:C_0805" H 7788 3550 50  0001 C CNN
F 3 "~" H 7750 3700 50  0001 C CNN
	1    7750 3700
	1    0    0    1   
$EndComp
Wire Wire Line
	7850 3450 7750 3450
Wire Wire Line
	7750 3450 7750 3550
Wire Wire Line
	7750 3850 7750 5450
Wire Wire Line
	7750 5450 8350 5450
Connection ~ 8350 5450
$Comp
L power:VCC #PWR010
U 1 1 5D3645E9
P 7700 2950
F 0 "#PWR010" H 7700 2800 50  0001 C CNN
F 1 "VCC" H 7717 3123 50  0000 C CNN
F 2 "" H 7700 2950 50  0001 C CNN
F 3 "" H 7700 2950 50  0001 C CNN
	1    7700 2950
	1    0    0    -1  
$EndComp
Wire Wire Line
	7850 2950 7700 2950
$Comp
L Device:R R6
U 1 1 5D36DC9E
P 7650 1800
F 0 "R6" H 7720 1846 50  0000 L CNN
F 1 "10K" H 7720 1755 50  0000 L CNN
F 2 "Resistors_SMD:R_0805" V 7580 1800 50  0001 C CNN
F 3 "~" H 7650 1800 50  0001 C CNN
	1    7650 1800
	1    0    0    -1  
$EndComp
Wire Wire Line
	7850 2150 7650 2150
Wire Wire Line
	7650 2150 7650 2050
$Comp
L power:VCC #PWR09
U 1 1 5D36F8F8
P 7650 1450
F 0 "#PWR09" H 7650 1300 50  0001 C CNN
F 1 "VCC" H 7667 1623 50  0000 C CNN
F 2 "" H 7650 1450 50  0001 C CNN
F 3 "" H 7650 1450 50  0001 C CNN
	1    7650 1450
	1    0    0    -1  
$EndComp
Wire Wire Line
	7650 1650 7650 1550
Wire Wire Line
	8550 1850 8450 1850
Connection ~ 8450 1850
Wire Wire Line
	8450 1850 8350 1850
Wire Wire Line
	7650 1550 8450 1550
Wire Wire Line
	8450 1550 8450 1850
Connection ~ 7650 1550
Wire Wire Line
	7650 1550 7650 1450
Text GLabel 9150 2150 2    50   Input ~ 0
LED_RX
Wire Wire Line
	9050 2150 9150 2150
Text GLabel 9150 3850 2    50   Input ~ 0
LED_TX
Wire Wire Line
	9050 3850 9150 3850
Text GLabel 2250 4650 0    50   Input ~ 0
LED_RX
Text GLabel 2250 5050 0    50   Input ~ 0
LED_TX
$Comp
L Device:LED D61
U 1 1 5D3860DF
P 2500 4650
F 0 "D61" H 2493 4395 50  0000 C CNN
F 1 "LED" H 2493 4486 50  0000 C CNN
F 2 "LEDs:LED_0805" H 2500 4650 50  0001 C CNN
F 3 "~" H 2500 4650 50  0001 C CNN
	1    2500 4650
	1    0    0    -1  
$EndComp
$Comp
L Device:LED D62
U 1 1 5D38683F
P 2500 5050
F 0 "D62" H 2493 4795 50  0000 C CNN
F 1 "LED" H 2493 4886 50  0000 C CNN
F 2 "LEDs:LED_0805" H 2500 5050 50  0001 C CNN
F 3 "~" H 2500 5050 50  0001 C CNN
	1    2500 5050
	1    0    0    -1  
$EndComp
$Comp
L Device:R R1
U 1 1 5D386DEF
P 2900 4650
F 0 "R1" V 2693 4650 50  0000 C CNN
F 1 "330R" V 2784 4650 50  0000 C CNN
F 2 "Resistors_SMD:R_0805" V 2830 4650 50  0001 C CNN
F 3 "~" H 2900 4650 50  0001 C CNN
	1    2900 4650
	0    1    1    0   
$EndComp
$Comp
L Device:R R2
U 1 1 5D3881BE
P 2900 5050
F 0 "R2" V 2693 5050 50  0000 C CNN
F 1 "330R" V 2784 5050 50  0000 C CNN
F 2 "Resistors_SMD:R_0805" V 2830 5050 50  0001 C CNN
F 3 "~" H 2900 5050 50  0001 C CNN
	1    2900 5050
	0    1    1    0   
$EndComp
Wire Wire Line
	3050 4650 3250 4650
Wire Wire Line
	2350 4650 2250 4650
Wire Wire Line
	2250 5050 2350 5050
Wire Wire Line
	2650 5050 2750 5050
Wire Wire Line
	2750 4650 2650 4650
Wire Wire Line
	3050 5050 3250 5050
Wire Wire Line
	3250 5050 3250 4650
Connection ~ 3250 4650
Wire Wire Line
	3250 4650 3250 4450
$Comp
L power:VCC #PWR04
U 1 1 5D3A0369
P 3250 4450
F 0 "#PWR04" H 3250 4300 50  0001 C CNN
F 1 "VCC" H 3267 4623 50  0000 C CNN
F 2 "" H 3250 4450 50  0001 C CNN
F 3 "" H 3250 4450 50  0001 C CNN
	1    3250 4450
	1    0    0    -1  
$EndComp
$Comp
L Device:C C7
U 1 1 5D3BF6C4
P 7300 3700
F 0 "C7" H 7186 3654 50  0000 R CNN
F 1 "0.1uF" H 7186 3745 50  0000 R CNN
F 2 "Capacitors_SMD:C_0805" H 7338 3550 50  0001 C CNN
F 3 "~" H 7300 3700 50  0001 C CNN
	1    7300 3700
	1    0    0    1   
$EndComp
Wire Wire Line
	7850 2750 7300 2750
Wire Wire Line
	7300 2750 7300 3550
Wire Wire Line
	7300 3850 7300 5450
Wire Wire Line
	7300 5450 7750 5450
Connection ~ 7750 5450
$Comp
L Device:C C9
U 1 1 5D3CD97A
P 8700 1550
F 0 "C9" V 8952 1550 50  0000 C CNN
F 1 "0.1uF" V 8861 1550 50  0000 C CNN
F 2 "Capacitors_SMD:C_0805" H 8738 1400 50  0001 C CNN
F 3 "~" H 8700 1550 50  0001 C CNN
	1    8700 1550
	0    -1   -1   0   
$EndComp
Wire Wire Line
	8450 1550 8550 1550
Connection ~ 8450 1550
Wire Wire Line
	8850 1550 9050 1550
Wire Wire Line
	9050 1550 9050 1650
$Comp
L power:GND #PWR011
U 1 1 5D3D1EE6
P 9050 1650
F 0 "#PWR011" H 9050 1400 50  0001 C CNN
F 1 "GND" H 9055 1477 50  0000 C CNN
F 2 "" H 9050 1650 50  0001 C CNN
F 3 "" H 9050 1650 50  0001 C CNN
	1    9050 1650
	1    0    0    -1  
$EndComp
$Comp
L Device:C C1
U 1 1 5D3D6572
P 2200 3150
F 0 "C1" H 2086 3104 50  0000 R CNN
F 1 "10uF" H 2086 3195 50  0000 R CNN
F 2 "Capacitors_SMD:C_1206" H 2238 3000 50  0001 C CNN
F 3 "~" H 2200 3150 50  0001 C CNN
	1    2200 3150
	1    0    0    1   
$EndComp
$Comp
L Device:C C2
U 1 1 5D3D6A4D
P 2650 3150
F 0 "C2" H 2535 3104 50  0000 R CNN
F 1 "1uF" H 2535 3195 50  0000 R CNN
F 2 "Capacitors_SMD:C_0805" H 2688 3000 50  0001 C CNN
F 3 "~" H 2650 3150 50  0001 C CNN
	1    2650 3150
	1    0    0    1   
$EndComp
$Comp
L Device:C C4
U 1 1 5D3D6EE7
P 3100 3150
F 0 "C4" H 2986 3104 50  0000 R CNN
F 1 "0.1uF" H 2986 3195 50  0000 R CNN
F 2 "Capacitors_SMD:C_0805" H 3138 3000 50  0001 C CNN
F 3 "~" H 3100 3150 50  0001 C CNN
	1    3100 3150
	1    0    0    1   
$EndComp
Wire Wire Line
	2200 3000 2650 3000
Connection ~ 2650 3000
Wire Wire Line
	3100 3300 2650 3300
Connection ~ 2650 3300
Wire Wire Line
	2650 3300 2200 3300
$Comp
L power:GND #PWR03
U 1 1 5D3DB683
P 2650 3400
F 0 "#PWR03" H 2650 3150 50  0001 C CNN
F 1 "GND" H 2655 3227 50  0000 C CNN
F 2 "" H 2650 3400 50  0001 C CNN
F 3 "" H 2650 3400 50  0001 C CNN
	1    2650 3400
	1    0    0    -1  
$EndComp
$Comp
L power:VCC #PWR02
U 1 1 5D3DCC39
P 2650 2900
F 0 "#PWR02" H 2650 2750 50  0001 C CNN
F 1 "VCC" H 2667 3073 50  0000 C CNN
F 2 "" H 2650 2900 50  0001 C CNN
F 3 "" H 2650 2900 50  0001 C CNN
	1    2650 2900
	1    0    0    -1  
$EndComp
Wire Wire Line
	2650 2900 2650 3000
Wire Wire Line
	2650 3300 2650 3400
$Comp
L power:VCC #PWR06
U 1 1 5D42A621
P 3700 1500
F 0 "#PWR06" H 3700 1350 50  0001 C CNN
F 1 "VCC" H 3717 1673 50  0000 C CNN
F 2 "" H 3700 1500 50  0001 C CNN
F 3 "" H 3700 1500 50  0001 C CNN
	1    3700 1500
	1    0    0    -1  
$EndComp
$Comp
L power:GND #PWR012
U 1 1 5D31E76B
P 9050 5650
F 0 "#PWR012" H 9050 5400 50  0001 C CNN
F 1 "GND" H 9055 5477 50  0000 C CNN
F 2 "" H 9050 5650 50  0001 C CNN
F 3 "" H 9050 5650 50  0001 C CNN
	1    9050 5650
	1    0    0    -1  
$EndComp
Wire Wire Line
	9050 5450 9050 5650
Wire Wire Line
	9050 4250 10100 4250
$Comp
L power:GND #PWR013
U 1 1 5D4445AC
P 10100 4250
F 0 "#PWR013" H 10100 4000 50  0001 C CNN
F 1 "GND" H 10105 4077 50  0000 C CNN
F 2 "" H 10100 4250 50  0001 C CNN
F 3 "" H 10100 4250 50  0001 C CNN
	1    10100 4250
	1    0    0    -1  
$EndComp
Text GLabel 9150 3350 2    50   Input ~ 0
ROW0
Text GLabel 9150 3450 2    50   Input ~ 0
ROW1
Text GLabel 9150 3550 2    50   Input ~ 0
ROW2
Text GLabel 9150 3650 2    50   Input ~ 0
ROW3
Text GLabel 9150 3750 2    50   Input ~ 0
ROW4
Text GLabel 9150 4550 2    50   Input ~ 0
COL0
Text GLabel 9150 4650 2    50   Input ~ 0
COL1
Text GLabel 9150 4750 2    50   Input ~ 0
COL2
Text GLabel 9150 4850 2    50   Input ~ 0
COL3
Text GLabel 9150 4950 2    50   Input ~ 0
COL4
Text GLabel 9150 5050 2    50   Input ~ 0
COL5
Text GLabel 9150 3150 2    50   Input ~ 0
COL6
Text GLabel 9150 3050 2    50   Input ~ 0
COL7
Text GLabel 9150 2750 2    50   Input ~ 0
COL8
Text GLabel 9150 2650 2    50   Input ~ 0
COL9
Text GLabel 9150 2550 2    50   Input ~ 0
COL10
Text GLabel 9150 4050 2    50   Input ~ 0
COL11
Wire Wire Line
	9050 2550 9150 2550
Wire Wire Line
	9150 2650 9050 2650
Wire Wire Line
	9050 2750 9150 2750
Wire Wire Line
	9150 3050 9050 3050
Wire Wire Line
	9050 3150 9150 3150
Wire Wire Line
	9150 3350 9050 3350
Wire Wire Line
	9050 3450 9150 3450
Wire Wire Line
	9150 3550 9050 3550
Wire Wire Line
	9050 3650 9150 3650
Wire Wire Line
	9150 3750 9050 3750
Wire Wire Line
	9050 4050 9150 4050
Wire Wire Line
	9150 4550 9050 4550
Wire Wire Line
	9050 4650 9150 4650
Wire Wire Line
	9050 4750 9150 4750
Wire Wire Line
	9150 4850 9050 4850
Wire Wire Line
	9050 4950 9150 4950
Wire Wire Line
	9150 5050 9050 5050
NoConn ~ 9050 4350
NoConn ~ 9050 2850
$Comp
L power:GND #PWR05
U 1 1 5D32B185
P 3300 2400
F 0 "#PWR05" H 3300 2150 50  0001 C CNN
F 1 "GND" H 3305 2227 50  0000 C CNN
F 2 "" H 3300 2400 50  0001 C CNN
F 3 "" H 3300 2400 50  0001 C CNN
	1    3300 2400
	1    0    0    -1  
$EndComp
Connection ~ 1800 2100
Wire Wire Line
	2650 3000 3100 3000
$Comp
L Connector:USB_B_Micro J1
U 1 1 5D320E91
P 1800 1700
F 0 "J1" H 1857 2167 50  0000 C CNN
F 1 "USB_B_Micro" H 1857 2076 50  0000 C CNN
F 2 "Connectors_USB:USB_Micro-B_Molex-105017-0001" H 1950 1650 50  0001 C CNN
F 3 "~" H 1950 1650 50  0001 C CNN
	1    1800 1700
	1    0    0    -1  
$EndComp
$Comp
L Switch:SW_SPST SW61
U 1 1 5D4F498E
P 7000 1850
F 0 "SW61" H 7000 2085 50  0000 C CNN
F 1 "SW_SPST" H 7000 1994 50  0000 C CNN
F 2 "Buttons_Switches_SMD:SW_SPST_SKQG" H 7000 1850 50  0001 C CNN
F 3 "~" H 7000 1850 50  0001 C CNN
	1    7000 1850
	1    0    0    -1  
$EndComp
$Comp
L power:GND #PWR08
U 1 1 5D4F4EE5
P 6700 1850
F 0 "#PWR08" H 6700 1600 50  0001 C CNN
F 1 "GND" H 6705 1677 50  0000 C CNN
F 2 "" H 6700 1850 50  0001 C CNN
F 3 "" H 6700 1850 50  0001 C CNN
	1    6700 1850
	1    0    0    -1  
$EndComp
Wire Wire Line
	6700 1850 6800 1850
Wire Wire Line
	7200 1850 7450 1850
Wire Wire Line
	7450 2050 7650 2050
Connection ~ 7650 2050
Wire Wire Line
	7650 2050 7650 1950
Wire Wire Line
	7450 1850 7450 2050
$Comp
L Connector_Generic:Conn_01x06 J2
U 1 1 5CF8BB5A
P 3200 6400
F 0 "J2" H 3280 6392 50  0000 L CNN
F 1 "ICSP" H 3280 6301 50  0000 L CNN
F 2 "Pin_Headers:Pin_Header_Angled_1x06_Pitch2.54mm" H 3200 6400 50  0001 C CNN
F 3 "~" H 3200 6400 50  0001 C CNN
	1    3200 6400
	1    0    0    -1  
$EndComp
Text GLabel 2900 6200 0    50   Input ~ 0
ICSP_MISO
Text GLabel 2900 6400 0    50   Input ~ 0
ICSP_SCK
Text GLabel 2900 6500 0    50   Input ~ 0
ICSP_MOSI
Text GLabel 2900 6600 0    50   Input ~ 0
ICSP_RST
$Comp
L power:VCC #PWR014
U 1 1 5CF9D09D
P 2300 6300
F 0 "#PWR014" H 2300 6150 50  0001 C CNN
F 1 "VCC" H 2317 6473 50  0000 C CNN
F 2 "" H 2300 6300 50  0001 C CNN
F 3 "" H 2300 6300 50  0001 C CNN
	1    2300 6300
	1    0    0    -1  
$EndComp
$Comp
L power:GND #PWR015
U 1 1 5CF9FEBF
P 2300 6700
F 0 "#PWR015" H 2300 6450 50  0001 C CNN
F 1 "GND" H 2305 6527 50  0000 C CNN
F 2 "" H 2300 6700 50  0001 C CNN
F 3 "" H 2300 6700 50  0001 C CNN
	1    2300 6700
	1    0    0    -1  
$EndComp
Wire Wire Line
	2300 6300 3000 6300
Wire Wire Line
	3000 6700 2300 6700
Wire Wire Line
	2900 6600 3000 6600
Wire Wire Line
	3000 6500 2900 6500
Wire Wire Line
	2900 6400 3000 6400
Wire Wire Line
	3000 6200 2900 6200
Connection ~ 8450 5450
Wire Wire Line
	8450 5450 9050 5450
$Comp
L MCU_Microchip_ATmega:ATmega32U4-AU U1
U 1 1 5D31C087
P 8450 3650
F 0 "U1" H 8450 1761 50  0000 C CNN
F 1 "ATmega32U4-AU" H 8450 1670 50  0000 C CNN
F 2 "Housings_QFP:TQFP-44_10x10mm_Pitch0.8mm" H 8450 3650 50  0001 C CIN
F 3 "http://ww1.microchip.com/downloads/en/DeviceDoc/Atmel-7766-8-bit-AVR-ATmega16U4-32U4_Datasheet.pdf" H 8450 3650 50  0001 C CNN
	1    8450 3650
	1    0    0    -1  
$EndComp
Text GLabel 9150 2450 2    50   Input ~ 0
ICSP_MISO
Text GLabel 9150 2350 2    50   Input ~ 0
ICSP_MOSI
Text GLabel 9150 2250 2    50   Input ~ 0
ICSP_SCK
Wire Wire Line
	9050 2250 9150 2250
Wire Wire Line
	9150 2350 9050 2350
Wire Wire Line
	9050 2450 9150 2450
Text GLabel 7350 2050 0    50   Input ~ 0
ICSP_RST
Wire Wire Line
	7350 2050 7450 2050
Connection ~ 7450 2050
NoConn ~ 9050 3950
Wire Wire Line
	2100 1500 3300 1500
Wire Wire Line
	3300 2200 3300 2400
$EndSCHEMATC
