G04 #@! TF.GenerationSoftware,KiCad,Pcbnew,5.1.2*
G04 #@! TF.CreationDate,2019-06-08T22:09:48+01:00*
G04 #@! TF.ProjectId,grid60,67726964-3630-42e6-9b69-6361645f7063,rev?*
G04 #@! TF.SameCoordinates,Original*
G04 #@! TF.FileFunction,Profile,NP*
%FSLAX46Y46*%
G04 Gerber Fmt 4.6, Leading zero omitted, Abs format (unit mm)*
G04 Created by KiCad (PCBNEW 5.1.2) date 2019-06-08 22:09:48*
%MOMM*%
%LPD*%
G04 APERTURE LIST*
%ADD10C,0.050000*%
G04 APERTURE END LIST*
D10*
X268500000Y-41000000D02*
X268500000Y-145500000D01*
X109500000Y-41000000D02*
X268500000Y-41000000D01*
X95500000Y-27000000D02*
X109500000Y-41000000D01*
X30500000Y-27000000D02*
X95500000Y-27000000D01*
X30500000Y-145500000D02*
X30500000Y-27000000D01*
X30500000Y-145500000D02*
X268500000Y-145500000D01*
M02*
