G04 #@! TF.GenerationSoftware,KiCad,Pcbnew,5.1.2*
G04 #@! TF.CreationDate,2019-06-08T22:09:48+01:00*
G04 #@! TF.ProjectId,grid60,67726964-3630-42e6-9b69-6361645f7063,rev?*
G04 #@! TF.SameCoordinates,Original*
G04 #@! TF.FileFunction,Other,User*
%FSLAX46Y46*%
G04 Gerber Fmt 4.6, Leading zero omitted, Abs format (unit mm)*
G04 Created by KiCad (PCBNEW 5.1.2) date 2019-06-08 22:09:48*
%MOMM*%
%LPD*%
G04 APERTURE LIST*
%ADD10C,0.050000*%
G04 APERTURE END LIST*
D10*
X46750000Y-40550000D02*
X42250000Y-40550000D01*
X46750000Y-40550000D02*
X46750000Y-38450000D01*
X42250000Y-38450000D02*
X42250000Y-40550000D01*
X42250000Y-38450000D02*
X46750000Y-38450000D01*
X46750000Y-38120000D02*
X43250000Y-38120000D01*
X46750000Y-38120000D02*
X46750000Y-36370000D01*
X43250000Y-36370000D02*
X43250000Y-38120000D01*
X43250000Y-36370000D02*
X46750000Y-36370000D01*
X67750000Y-44630000D02*
X71250000Y-44630000D01*
X67750000Y-44630000D02*
X67750000Y-46380000D01*
X71250000Y-46380000D02*
X71250000Y-44630000D01*
X71250000Y-46380000D02*
X67750000Y-46380000D01*
X76420000Y-33250000D02*
X76420000Y-29750000D01*
X76420000Y-33250000D02*
X78170000Y-33250000D01*
X78170000Y-29750000D02*
X76420000Y-29750000D01*
X78170000Y-29750000D02*
X78170000Y-33250000D01*
X65920000Y-33250000D02*
X65920000Y-29750000D01*
X65920000Y-33250000D02*
X67670000Y-33250000D01*
X67670000Y-29750000D02*
X65920000Y-29750000D01*
X67670000Y-29750000D02*
X67670000Y-33250000D01*
X71250000Y-44620000D02*
X67750000Y-44620000D01*
X71250000Y-44620000D02*
X71250000Y-42870000D01*
X67750000Y-42870000D02*
X67750000Y-44620000D01*
X67750000Y-42870000D02*
X71250000Y-42870000D01*
X71250000Y-42880000D02*
X67750000Y-42880000D01*
X71250000Y-42880000D02*
X71250000Y-41130000D01*
X67750000Y-41130000D02*
X67750000Y-42880000D01*
X67750000Y-41130000D02*
X71250000Y-41130000D01*
X43250000Y-34380000D02*
X46750000Y-34380000D01*
X43250000Y-34380000D02*
X43250000Y-36130000D01*
X46750000Y-36130000D02*
X46750000Y-34380000D01*
X46750000Y-36130000D02*
X43250000Y-36130000D01*
X82000000Y-35650000D02*
X85900000Y-35650000D01*
X82000000Y-37350000D02*
X82000000Y-35650000D01*
X85900000Y-37350000D02*
X82000000Y-37350000D01*
X85900000Y-35650000D02*
X85900000Y-37350000D01*
X85900000Y-32650000D02*
X85900000Y-34350000D01*
X85900000Y-34350000D02*
X82000000Y-34350000D01*
X82000000Y-34350000D02*
X82000000Y-32650000D01*
X82000000Y-32650000D02*
X85900000Y-32650000D01*
X85900000Y-31350000D02*
X82000000Y-31350000D01*
X85900000Y-29650000D02*
X85900000Y-31350000D01*
X82000000Y-29650000D02*
X85900000Y-29650000D01*
X82000000Y-31350000D02*
X82000000Y-29650000D01*
X27950000Y-46670000D02*
X40300000Y-46670000D01*
X27950000Y-30370000D02*
X27950000Y-46670000D01*
X40300000Y-30370000D02*
X27950000Y-30370000D01*
X40300000Y-46670000D02*
X40300000Y-30370000D01*
X87550000Y-35600000D02*
X90650000Y-35600000D01*
X87550000Y-35600000D02*
X87550000Y-37400000D01*
X90650000Y-37400000D02*
X90650000Y-35600000D01*
X90650000Y-37400000D02*
X87550000Y-37400000D01*
X90650000Y-34400000D02*
X87550000Y-34400000D01*
X90650000Y-34400000D02*
X90650000Y-32600000D01*
X87550000Y-32600000D02*
X87550000Y-34400000D01*
X87550000Y-32600000D02*
X90650000Y-32600000D01*
X90650000Y-31400000D02*
X87550000Y-31400000D01*
X90650000Y-31400000D02*
X90650000Y-29600000D01*
X87550000Y-29600000D02*
X87550000Y-31400000D01*
X87550000Y-29600000D02*
X90650000Y-29600000D01*
X59400000Y-30500000D02*
X59400000Y-33600000D01*
X59400000Y-30500000D02*
X57600000Y-30500000D01*
X57600000Y-33600000D02*
X59400000Y-33600000D01*
X57600000Y-33600000D02*
X57600000Y-30500000D01*
M02*
